[{"location_hash_id": [""], "location_name": ["-t\u00fcm mutfaklar"], "location_url": null},
{"location_hash_id": [""], "location_name": ["-\u0130stanbul semtler"], "location_url": null},
{"location_hash_id": [""], "location_name": ["-t\u00fcm restoranlar"], "location_url": null},
{"location_hash_id": ["50"], "location_name": ["50"], "location_url": null},
{"location_hash_id": ["100"], "location_name": ["100"], "location_url": null},
{"location_hash_id": ["150"], "location_name": ["150"], "location_url": null},
{"location_hash_id": ["300"], "location_name": ["300"], "location_url": null},
{"location_hash_id": [""], "location_name": ["<<< Hepsi >>>"], "location_url": null},
{"location_hash_id": ["f0360586-cdbc-4018-a765-5935fb699f74"], "location_name": ["Ac\u0131badem"], "location_url": null},
{"location_hash_id": ["4f67d031-d26f-4b9f-a648-13dd88978279"], "location_name": ["Adatepe"], "location_url": null},
{"location_hash_id": ["fffb6cba-49b8-4f0b-b34f-0043f4418aa9"], "location_name": ["Akatlar"], "location_url": null},
{"location_hash_id": ["06775f55-97e7-4709-a75e-e1c8a1ac1243"], "location_name": ["Aksaray"], "location_url": null},
{"location_hash_id": ["8dde7d50-03bd-4ed7-8aa8-ed16469a9b05"], "location_name": ["Alibeyk\u00f6y"], "location_url": null},
{"location_hash_id": ["6476ed83-619f-439c-b7ec-1704db5eb69a"], "location_name": ["Alibeyk\u00f6y (Finanskent)"], "location_url": null},
{"location_hash_id": ["3c872222-cabe-4644-b469-988d70a20a9e"], "location_name": ["Alibeyk\u00f6y (G\u00fczeltepe)"], "location_url": null},
{"location_hash_id": ["5cb41661-c564-400a-bb1d-e43f954b6381"], "location_name": ["Altunizade"], "location_url": null},
{"location_hash_id": ["db0a63b6-2205-41f3-b462-248fb7577ff2"], "location_name": ["Anadoluhisar\u0131"], "location_url": null},
{"location_hash_id": ["a6a21d02-2ce6-4d95-b324-7323fa77ed4a"], "location_name": ["Arnavutk\u00f6y"], "location_url": null},
{"location_hash_id": ["abab3976-15df-45c2-8db3-b1ac62b1db90"], "location_name": ["A\u015fa\u011f\u0131 Dudullu"], "location_url": null},
{"location_hash_id": ["b1a94e22-41ef-44f0-8479-28fe26c3c318"], "location_name": ["Atak\u00f6y 1."], "location_url": null},
{"location_hash_id": ["1dc7dda4-b668-4fb6-88ef-e6837cb14d4b"], "location_name": ["Atak\u00f6y 10."], "location_url": null},
{"location_hash_id": ["40e8f5d4-9224-4d93-a593-8760549d89cf"], "location_name": ["Atak\u00f6y 11."], "location_url": null},
{"location_hash_id": ["ef63f055-1cd6-4fcb-b387-0d38a7299cd1"], "location_name": ["Atak\u00f6y 2."], "location_url": null},
{"location_hash_id": ["7d4d4052-402a-428c-a3d4-3e00b480699d"], "location_name": ["Atak\u00f6y 3."], "location_url": null},
{"location_hash_id": ["b735e339-352c-4d18-ac39-503fd717ef66"], "location_name": ["Atak\u00f6y 4."], "location_url": null},
{"location_hash_id": ["3a9d92d2-e715-496d-953a-0e4d70b1eb74"], "location_name": ["Atak\u00f6y 5."], "location_url": null},
{"location_hash_id": ["842fdac2-bdaa-4a6c-bbda-27ce3afead90"], "location_name": ["Atak\u00f6y 6."], "location_url": null},
{"location_hash_id": ["c6b59db0-e386-43c5-b21d-5ccafa60bf67"], "location_name": ["Atak\u00f6y 7."], "location_url": null},
{"location_hash_id": ["435c5cb2-e20b-4141-a88e-560b89a91697"], "location_name": ["Atak\u00f6y 8."], "location_url": null},
{"location_hash_id": ["e562d3cc-8f38-488b-a049-601ea601b23e"], "location_name": ["Atak\u00f6y 9."], "location_url": null},
{"location_hash_id": ["36b6d250-358f-443b-9b28-82f173c139c8"], "location_name": ["Atak\u00f6y Konaklar\u0131"], "location_url": null},
{"location_hash_id": ["b9aedab1-b6fe-4f5f-b60b-4021edc369b5"], "location_name": ["Ata\u015fehir (Barbaros Mah.)"], "location_url": null},
{"location_hash_id": ["bcbacab2-e4d2-45df-b6d1-172d9b9001f1"], "location_name": ["Ata\u015fehir (Bat\u0131)"], "location_url": null},
{"location_hash_id": ["92f6d60b-849d-4c27-8fb4-474c356e2f57"], "location_name": ["Ata\u015fehir (Esatpa\u015fa Mah.)"], "location_url": null},
{"location_hash_id": ["825a9c2e-af6d-4975-a17c-42f2f58e2b9e"], "location_name": ["Ata\u015fehir (Ferhatpa\u015fa Mah.)"], "location_url": null},
{"location_hash_id": ["9508ca99-2cb0-4701-85b6-ec1a328f61ed"], "location_name": ["Ata\u015fehir (Fetih Mah.)"], "location_url": null},
{"location_hash_id": ["10ed6856-d220-4fab-adc7-4c4ef9be1a87"], "location_name": ["Ata\u015fehir (Merkez)"], "location_url": null},
{"location_hash_id": ["f3953cd4-9eed-4d1b-957c-85dd4b97157d"], "location_name": ["Ata\u015fehir (Mevlana Mah.)"], "location_url": null},
{"location_hash_id": ["9970722c-644e-404f-bab3-a5e1e2b72295"], "location_name": ["Ata\u015fehir (Mustafa Kemal Mah.)"], "location_url": null},
{"location_hash_id": ["a733319b-7fbe-47f0-a5b0-b1b2ab5cb29b"], "location_name": ["Ata\u015fehir (\u00d6rnek Mah.)"], "location_url": null},
{"location_hash_id": ["705af9eb-ca43-42ab-b794-3dbaf426871c"], "location_name": ["Ata\u015fehir (Yeni \u00c7aml\u0131ca)"], "location_url": null},
{"location_hash_id": ["bc553dab-6419-4c68-b5c7-9840fd36d16b"], "location_name": ["Ata\u015fehir (Yenisahra Mah.)"], "location_url": null},
{"location_hash_id": ["2cdaf998-0345-4117-86ec-d34a4c31efc8"], "location_name": ["Ata\u015fehir (Yeni\u015fehir Mah.)"], "location_url": null},
{"location_hash_id": ["e305ff5b-e5f1-486f-8259-04ba5dfb67ec"], "location_name": ["Avc\u0131lar (Ambarl\u0131 Mah.)"], "location_url": null},
{"location_hash_id": ["f07c9e03-2818-456f-b10c-1058ae7cfa5b"], "location_name": ["Avc\u0131lar (Cihangir)"], "location_url": null},
{"location_hash_id": ["2fa758d6-dced-4485-a023-7ecf9e4d08da"], "location_name": ["Avc\u0131lar (Denizk\u00f6\u015fkler)"], "location_url": null},
{"location_hash_id": ["d63b53be-91c9-408b-b47a-552640d54624"], "location_name": ["Avc\u0131lar (Firuzk\u00f6y Mah.)"], "location_url": null},
{"location_hash_id": ["f75a5e15-5e67-4ed1-bd60-97f095a9c3d1"], "location_name": ["Avc\u0131lar (G\u00fcm\u00fc\u015fpala)"], "location_url": null},
{"location_hash_id": ["f4188a72-05db-4ae7-b37d-2fb8f7d990f2"], "location_name": ["Avc\u0131lar (Merkez)"], "location_url": null},
{"location_hash_id": ["fadcf25a-953b-4e88-a8fe-6f71816ff6e4"], "location_name": ["Avc\u0131lar (Parseller)"], "location_url": null},
{"location_hash_id": ["59a1fbae-12e5-4ced-8ac1-2c0afa6aa689"], "location_name": ["Avc\u0131lar (\u00dcniversite Mah.)"], "location_url": null},
{"location_hash_id": ["ac9a385d-f7a0-46b5-a99a-a16130a64a39"], "location_name": ["Avrupa Konutlar\u0131 (TEM)"], "location_url": null},
{"location_hash_id": ["947574de-5073-48f5-8d48-03a12ced0442"], "location_name": ["Ayaza\u011fa"], "location_url": null},
{"location_hash_id": ["16b5f195-b7da-42cd-9809-e01e0b18cb74"], "location_name": ["Ay\u015fekad\u0131n"], "location_url": null},
{"location_hash_id": ["c6a6633a-9fd9-4708-89bb-e72e5233f99c"], "location_name": ["Ba\u011fc\u0131lar (100. Y\u0131l Mah.)"], "location_url": null},
{"location_hash_id": ["2a1b932a-95b2-4f75-b2ea-27ed760636a4"], "location_name": ["Ba\u011fc\u0131lar (Bas\u0131n Ekspres Yolu)"], "location_url": null},
{"location_hash_id": ["66162f4f-f097-449a-b873-b440117fbe93"], "location_name": ["Ba\u011fc\u0131lar (Mahmutbey Mah.)"], "location_url": null},
{"location_hash_id": ["d87267aa-d5a3-4d85-b58f-af033f0edbca"], "location_name": ["Ba\u011fc\u0131lar (Merkez)"], "location_url": null},
{"location_hash_id": ["1ddc44f0-6e8f-459c-95dc-cae11910ec11"], "location_name": ["Bah\u00e7ekap\u0131"], "location_url": null},
{"location_hash_id": ["76d160fd-48a5-43d9-a8b4-43b8f2127a0a"], "location_name": ["Bah\u00e7elievler (Merkez)"], "location_url": null},
{"location_hash_id": ["0ef48836-0f9d-4c5e-99d9-8b26a5378d39"], "location_name": ["Bah\u00e7elievler (Siyavu\u015fpa\u015fa)"], "location_url": null},
{"location_hash_id": ["82bd3b7c-8271-4b49-9c7e-1abc57044cfd"], "location_name": ["Bah\u00e7elievler (So\u011fanl\u0131)"], "location_url": null},
{"location_hash_id": ["13db8aba-5e88-4fe9-a659-d0d11c0989e7"], "location_name": ["Bah\u00e7elievler (Yayla)"], "location_url": null},
{"location_hash_id": ["3a13a032-d455-4cc2-8b9c-41f70d3ca007"], "location_name": ["Bah\u00e7e\u015fehir"], "location_url": null},
{"location_hash_id": ["1402e44e-9a4c-4a5b-a006-42c00af9b718"], "location_name": ["Bah\u00e7e\u015fehir (Ard\u0131\u00e7l\u0131 Mah.)"], "location_url": null},
{"location_hash_id": ["161c1c97-07f8-4457-b754-4fde1d959f98"], "location_name": ["Bah\u00e7e\u015fehir (Bo\u011fazk\u00f6y)"], "location_url": null},
{"location_hash_id": ["725bc9f1-6053-4762-a458-20f2e7a1d04c"], "location_name": ["Bah\u00e7e\u015fehir (Esenkent Mah.)"], "location_url": null},
{"location_hash_id": ["234aaf93-4be5-474f-9867-e5e86e92982e"], "location_name": ["Bah\u00e7e\u015fehir (Eston\u015fehir)"], "location_url": null},
{"location_hash_id": ["61b2802f-c20c-451e-968f-ea0f15b7c1a7"], "location_name": ["Bah\u00e7e\u015fehir (Ispartakule Evleri)"], "location_url": null},
{"location_hash_id": ["f0c2c327-19af-4ae3-9da5-262158cc2ad8"], "location_name": ["Bak\u0131rk\u00f6y (\u0130ncirli)"], "location_url": null},
{"location_hash_id": ["9f61d416-1348-415c-862b-8c093f793943"], "location_name": ["Bak\u0131rk\u00f6y (Kartaltepe)"], "location_url": null},
{"location_hash_id": ["e2e846e4-b5c1-4c08-8491-58c0a85b8628"], "location_name": ["Bak\u0131rk\u00f6y (Merkez)"], "location_url": null},
{"location_hash_id": ["96c75c2f-6f08-46ba-b16d-9d38618af580"], "location_name": ["Bak\u0131rk\u00f6y (Osmaniye)"], "location_url": null},
{"location_hash_id": ["7f799ed3-cee6-4214-ac62-e2efd05a03e4"], "location_name": ["Bak\u0131rk\u00f6y (Yeni Mahalle)"], "location_url": null},
{"location_hash_id": ["8d1760d2-95f9-4d41-9a13-548a59750408"], "location_name": ["Bak\u0131rk\u00f6y (Zeytinlik)"], "location_url": null},
{"location_hash_id": ["a0506658-dc40-455b-8dbb-6fda6cbfaf57"], "location_name": ["Bak\u0131rk\u00f6y (Zuhuratbaba)"], "location_url": null},
{"location_hash_id": ["2af54fda-98a5-4c42-b4a6-48460536e531"], "location_name": ["Balat"], "location_url": null},
{"location_hash_id": ["9ada8682-5103-44da-bb8a-a96c56402711"], "location_name": ["Balmumcu"], "location_url": null},
{"location_hash_id": ["a860147e-ad4f-44c6-bd00-69ab45d94085"], "location_name": ["Baltaliman\u0131"], "location_url": null},
{"location_hash_id": ["838cecd6-4e8c-40bc-bfbf-766842d862ec"], "location_name": ["Ba\u015fak\u015fehir"], "location_url": null},
{"location_hash_id": ["5b791ddc-5f35-4f0d-ab38-56515c3b3ce3"], "location_name": ["Ba\u015fak\u015fehir (1. Etap)"], "location_url": null},
{"location_hash_id": ["c60eb663-dab4-461d-ac6a-e2ebc7d3a3e2"], "location_name": ["Ba\u015fak\u015fehir (2. Etap)"], "location_url": null},
{"location_hash_id": ["88b114ad-a05b-49c8-baaa-a31860b2fb83"], "location_name": ["Ba\u015fak\u015fehir (4. Etap)"], "location_url": null},
{"location_hash_id": ["d686e5b8-4848-4f6d-b1fe-2bbd02a22de7"], "location_name": ["Ba\u015fak\u015fehir (5. Etap)"], "location_url": null},
{"location_hash_id": ["ce8aed10-28b3-44bf-a3d8-24ae31309489"], "location_name": ["Ba\u015fak\u015fehir (Alt\u0131n\u015fehir Mah.)"], "location_url": null},
{"location_hash_id": ["c86b5d28-68c1-46e0-8099-c91857874135"], "location_name": ["Ba\u015fak\u015fehir (Kaya\u015fehir)"], "location_url": null},
{"location_hash_id": ["88e329dd-11c5-4b97-bdcc-0554ef00e4bb"], "location_name": ["Ba\u015fak\u015fehir (\u015eahintepe Mah.)"], "location_url": null},
{"location_hash_id": ["59d29345-fed2-4654-9386-f531819b7115"], "location_name": ["Bayramo\u011flu"], "location_url": null},
{"location_hash_id": ["1aa28771-a60e-49ca-b501-4c49caef5bb3"], "location_name": ["Bayrampa\u015fa (Alt\u0131ntepsi Mah.)"], "location_url": null},
{"location_hash_id": ["212f1e02-360c-4b84-bb3a-98f0f481d3e5"], "location_name": ["Bayrampa\u015fa (Cevatpa\u015fa Mah.)"], "location_url": null},
{"location_hash_id": ["055509a3-8267-4842-b3dc-12954a6c68fe"], "location_name": ["Bayrampa\u015fa (Demirkap\u0131)"], "location_url": null},
{"location_hash_id": ["c318164c-c992-45f0-a4a6-7305b86a8fed"], "location_name": ["Bayrampa\u015fa (\u0130smetpa\u015fa Mah.)"], "location_url": null},
{"location_hash_id": ["9b8fd694-3770-4f90-a26b-079f38612057"], "location_name": ["Bayrampa\u015fa (Kartaltepe Mah.)"], "location_url": null},
{"location_hash_id": ["1b526378-fb77-46e0-8b10-157f79a4b8cc"], "location_name": ["Bayrampa\u015fa (Kocatepe Mah.)"], "location_url": null},
{"location_hash_id": ["20cfbcd7-460c-44d6-922e-b539fedb7f53"], "location_name": ["Bayrampa\u015fa (Merkez)"], "location_url": null},
{"location_hash_id": ["fec908ff-5053-4dbb-b86d-56820d01201b"], "location_name": ["Bayrampa\u015fa (Muratpa\u015fa Mah.)"], "location_url": null},
{"location_hash_id": ["e30f7da4-70c0-41d1-a92a-c3d64fc2e074"], "location_name": ["Bayrampa\u015fa (Ortamahalle Mah.)"], "location_url": null},
{"location_hash_id": ["d89d911a-e160-4421-9f9c-24263da26c8a"], "location_name": ["Bayrampa\u015fa (Terazidere Mah.)"], "location_url": null},
{"location_hash_id": ["af2ac7dd-d834-47e5-a270-026f33eaa6fb"], "location_name": ["Bayrampa\u015fa (Vatan Mah.)"], "location_url": null},
{"location_hash_id": ["81659254-a885-4881-9473-6d78a132e66f"], "location_name": ["Bayrampa\u015fa (Yenido\u011fan Mah.)"], "location_url": null},
{"location_hash_id": ["faa523b1-c90a-4ed1-8b0c-e42e58842078"], "location_name": ["Bayrampa\u015fa (Y\u0131ld\u0131r\u0131m Mah.)"], "location_url": null},
{"location_hash_id": ["d10b0d32-b711-4573-bef2-8fd68feb70de"], "location_name": ["Bebek"], "location_url": null},
{"location_hash_id": ["d0b97a38-fc38-4f47-8b6a-98e6ce8b432c"], "location_name": ["Be\u015fevler"], "location_url": null},
{"location_hash_id": ["065be97a-0139-4c40-a4af-ee8d6b85018f"], "location_name": ["Be\u015fikta\u015f (Akaretler)"], "location_url": null},
{"location_hash_id": ["d3761120-af5b-422d-ac13-4652b824c35c"], "location_name": ["Be\u015fikta\u015f (Barbaros)"], "location_url": null},
{"location_hash_id": ["cbe22b12-a067-4900-be6a-605b5a715a42"], "location_name": ["Be\u015fikta\u015f (Merkez)"], "location_url": null},
{"location_hash_id": ["c24db467-5c29-431e-af5b-a9f19c03965a"], "location_name": ["Be\u015fikta\u015f (Muradiye Mah.)"], "location_url": null},
{"location_hash_id": ["a2d700e2-e98f-4ad7-a850-3613f133a6e2"], "location_name": ["Be\u015fikta\u015f (Sinanpa\u015fa Mah.)"], "location_url": null},
{"location_hash_id": ["ae7e2478-6150-4773-a285-573a9a6b2528"], "location_name": ["Be\u015fikta\u015f (T\u00fcrkali Mah.)"], "location_url": null},
{"location_hash_id": ["5fd688e3-5214-4cba-bf8e-dfdf816bff2f"], "location_name": ["Be\u015fikta\u015f (Vi\u015fnezade Mah.)"], "location_url": null},
{"location_hash_id": ["c3cfaede-ddaf-4abe-8e8a-e6e67cfeb2b2"], "location_name": ["Be\u015fikta\u015f (Y\u0131ld\u0131z)"], "location_url": null},
{"location_hash_id": ["96e980ac-562e-4f00-a6a4-f45ebaa98d3d"], "location_name": ["Beyaz\u0131t"], "location_url": null},
{"location_hash_id": ["0fdae0c4-cbca-437b-896c-ce32e3f60c06"], "location_name": ["Beykent"], "location_url": null},
{"location_hash_id": ["1065dc90-f759-474b-92d9-12b8b4832521"], "location_name": ["Beykoz (Acarkent)"], "location_url": null},
{"location_hash_id": ["0e6ce901-0b95-4163-b5c4-cac176ad24a3"], "location_name": ["Beykoz (Akbabak\u00f6y\u00fc)"], "location_url": null},
{"location_hash_id": ["2106c33b-8c94-4a8b-929f-0e984c11102a"], "location_name": ["Beykoz (Beykoz Kon.)"], "location_url": null},
{"location_hash_id": ["2873bb23-ba9e-4bcd-b09a-a3df17bcdf8b"], "location_name": ["Beykoz (\u00c7avu\u015fba\u015f\u0131)"], "location_url": null},
{"location_hash_id": ["886ab41e-5b22-42b4-87ad-73c2a1781841"], "location_name": ["Beykoz (\u00c7ubuklu Mah.)"], "location_url": null},
{"location_hash_id": ["dd5af8d6-b079-4cfc-8d98-12495e96c048"], "location_name": ["Beykoz (G\u00f6ztepe Mah.)"], "location_url": null},
{"location_hash_id": ["8b9ba20b-9fe8-47c6-a5c3-9961909ec3a7"], "location_name": ["Beykoz (Merkez)"], "location_url": null},
{"location_hash_id": ["ed2dc29f-f754-4680-8b99-14aa9310676e"], "location_name": ["Beykoz (Orta\u00e7e\u015fme)"], "location_url": null},
{"location_hash_id": ["888873bb-29eb-47c7-b126-76a732c7d645"], "location_name": ["Beykoz (Pa\u015fabah\u00e7e Mah.)"], "location_url": null},
{"location_hash_id": ["f8857ae9-145e-4bb4-b2e8-f1f59e143222"], "location_name": ["Beykoz (Polonezk\u00f6y)"], "location_url": null},
{"location_hash_id": ["dfeaa571-7a60-4fa1-8884-e54c6f47df22"], "location_name": ["Beykoz (R\u00fczgarl\u0131bah\u00e7e Mah.)"], "location_url": null},
{"location_hash_id": ["c9c62f3d-3f7f-45b4-84b6-ba2f21bd13e8"], "location_name": ["Beykoz (So\u011fuksu Mah.)"], "location_url": null},
{"location_hash_id": ["23f160ee-46ab-49ef-974e-90b48ec5dbcb"], "location_name": ["Beykoz (Tokatk\u00f6y)"], "location_url": null},
{"location_hash_id": ["7986db58-1bcd-47ab-8809-0dcec0792e21"], "location_name": ["Beykoz (Vanik\u00f6y Mah.)"], "location_url": null},
{"location_hash_id": ["f3138274-dd3b-436a-ace5-4396203339c8"], "location_name": ["Beykoz (Yal\u0131k\u00f6y Mah.)"], "location_url": null},
{"location_hash_id": ["571e4bd4-fd4c-4d7a-9e0e-5d32aa899856"], "location_name": ["Beylerbeyi"], "location_url": null},
{"location_hash_id": ["d50359c2-c4a5-4754-aaf0-51bbcc2edadd"], "location_name": ["Beylikd\u00fcz\u00fc (Adnan Kahveci Mah.)"], "location_url": null},
{"location_hash_id": ["2ac8d7f0-8c27-4df9-b4af-0070c92b43f7"], "location_name": ["Beylikd\u00fcz\u00fc (Bar\u0131\u015f Mah.)"], "location_url": null},
{"location_hash_id": ["932a8123-2747-48af-8f59-a0475c170056"], "location_name": ["Beylikd\u00fcz\u00fc (Beykoop Mah.)"], "location_url": null},
{"location_hash_id": ["acc72bca-fa40-4579-8fc8-2070c4c8f510"], "location_name": ["Beylikd\u00fcz\u00fc (B\u00fcy\u00fck\u015fehir Mah.)"], "location_url": null},
{"location_hash_id": ["54cd4d1d-ccb7-4629-997e-5d590fe88c70"], "location_name": ["Beylikd\u00fcz\u00fc (Cumhuriyet Mah.)"], "location_url": null},
{"location_hash_id": ["4abc0d81-516b-4bfb-b5fc-6ec94a96b42a"], "location_name": ["Beylikd\u00fcz\u00fc (G\u00fcrp\u0131nar)"], "location_url": null},
{"location_hash_id": ["87e01e82-39fa-4034-b94c-2033aad6d730"], "location_name": ["Beylikd\u00fcz\u00fc (\u0130hlas Mar. Evleri 1)"], "location_url": null},
{"location_hash_id": ["76c7b13e-b260-4787-9d52-a703271afe95"], "location_name": ["Beylikd\u00fcz\u00fc (\u0130hlas Mar. Evleri 2)"], "location_url": null},
{"location_hash_id": ["944d00ea-0b8e-438e-b1ad-31a11285b22f"], "location_name": ["Beylikd\u00fcz\u00fc (Kavakl\u0131)"], "location_url": null},
{"location_hash_id": ["5dba633d-40ed-4b9b-b221-0cef23863900"], "location_name": ["Beylikd\u00fcz\u00fc (Merkez)"], "location_url": null},
{"location_hash_id": ["3ba65627-114b-46d9-bf4f-3d0e22a6e8f5"], "location_name": ["Beylikd\u00fcz\u00fc (Yakuplu)"], "location_url": null},
{"location_hash_id": ["22fb3e10-f8ed-4cb5-8a09-9ef67b59616d"], "location_name": ["Beyo\u011flu (Galatasaray)"], "location_url": null},
{"location_hash_id": ["2288b9d2-ea0c-42bb-9b12-ae550ce21134"], "location_name": ["Beyo\u011flu (Merkez)"], "location_url": null},
{"location_hash_id": ["c470c585-741c-4965-8e8c-6b7970a0f9bf"], "location_name": ["Bostanc\u0131"], "location_url": null},
{"location_hash_id": ["318fd9a0-fb80-4f3f-8288-6f64d5b70c77"], "location_name": ["Bostanc\u0131 (\u00dcst)"], "location_url": null},
{"location_hash_id": ["8a086981-edbb-463e-918c-8f47283ad583"], "location_name": ["Bulgurlu"], "location_url": null},
{"location_hash_id": ["32735c02-58d4-4151-96e2-36e4329ed851"], "location_name": ["Burgazada"], "location_url": null},
{"location_hash_id": ["80c410d4-db26-43b5-99b3-c22fe9862ae2"], "location_name": ["B\u00fcy\u00fck Bakkalk\u00f6y"], "location_url": null},
{"location_hash_id": ["041ffee2-83f8-4040-9ad7-9381178e0dba"], "location_name": ["B\u00fcy\u00fckada"], "location_url": null},
{"location_hash_id": ["387483a3-9551-4e9e-a194-4abe74973d8b"], "location_name": ["B\u00fcy\u00fck\u00e7ekmece (Atat\u00fcrk Mah.)"], "location_url": null},
{"location_hash_id": ["f0995fbb-67d2-421f-83a7-f2f48d0e4ccc"], "location_name": ["B\u00fcy\u00fck\u00e7ekmece (Ekinoba)"], "location_url": null},
{"location_hash_id": ["bc054e88-a4bc-493b-bfe8-27b6bc76d715"], "location_name": ["B\u00fcy\u00fck\u00e7ekmece (Eml. Bank Konutlar\u0131)"], "location_url": null},
{"location_hash_id": ["5c1509f6-6f75-467c-8d15-19ff6a3f7a58"], "location_name": ["B\u00fcy\u00fck\u00e7ekmece (G\u00fczelce Mah.)"], "location_url": null},
{"location_hash_id": ["0a5a373e-c3d7-4873-a2f5-2db32b4e9850"], "location_name": ["B\u00fcy\u00fck\u00e7ekmece (Kumburgaz Mah.)"], "location_url": null},
{"location_hash_id": ["c1e7f15d-75d5-4b75-bcc5-1fdf54c622a0"], "location_name": ["B\u00fcy\u00fck\u00e7ekmece (Merkez)"], "location_url": null},
{"location_hash_id": ["82ff1430-5e16-4f5a-b320-9243123e2977"], "location_name": ["B\u00fcy\u00fck\u00e7ekmece (Mimar Sinan Mah.)"], "location_url": null},
{"location_hash_id": ["103b3748-f98a-4b3a-af3e-6ba8472700b2"], "location_name": ["B\u00fcy\u00fck\u00e7ekmece (Mimaroba)"], "location_url": null},
{"location_hash_id": ["61d5a0ad-f95c-4a95-8898-cc647e745780"], "location_name": ["B\u00fcy\u00fck\u00e7ekmece (Sinanoba)"], "location_url": null},
{"location_hash_id": ["6787c0a4-d110-4e9f-b8d5-aa7c657a6246"], "location_name": ["B\u00fcy\u00fck\u00e7ekmece (Tepekent Sitesi)"], "location_url": null},
{"location_hash_id": ["eb4f7e22-ec06-4a5d-9953-9c7c2debfe1f"], "location_name": ["Caddebostan"], "location_url": null},
{"location_hash_id": ["f1c5085d-ce28-4bfa-a3fa-9ec6b3d7ed12"], "location_name": ["Ca\u011falo\u011flu"], "location_url": null},
{"location_hash_id": ["01f5d0c7-9b1f-4b1f-a28b-cb7b9c4a7582"], "location_name": ["Cendere Yolu"], "location_url": null},
{"location_hash_id": ["bd0ffa42-9740-4eab-a276-1adba5ca70fa"], "location_name": ["Cevizliba\u011f"], "location_url": null},
{"location_hash_id": ["8fde22e3-af3a-4879-ab88-9c17c1eca07a"], "location_name": ["Cihangir"], "location_url": null},
{"location_hash_id": ["0ab9cc77-17d6-4619-8a86-972cde409cee"], "location_name": ["\u00c7a\u011flayan"], "location_url": null},
{"location_hash_id": ["aab014b7-bf4b-413c-8869-3e867f7b11e9"], "location_name": ["\u00c7akmak Cad."], "location_url": null},
{"location_hash_id": ["ab114e2c-3fde-49e3-b14c-437c9a92d353"], "location_name": ["\u00c7aml\u0131ca (B\u00fcy\u00fck)"], "location_url": null},
{"location_hash_id": ["b60af4ea-373e-425a-9385-0ed3bcf9addb"], "location_name": ["\u00c7aml\u0131ca (K\u00fc\u00e7\u00fck)"], "location_url": null},
{"location_hash_id": ["7df69dbe-3626-44fb-b06f-98186f9dde7b"], "location_name": ["\u00c7apa"], "location_url": null},
{"location_hash_id": ["c991f30b-30a4-45bf-a306-75148e938d68"], "location_name": ["\u00c7atalca"], "location_url": null},
{"location_hash_id": ["9f51fc52-1dd4-4b1a-8381-2219a075cea1"], "location_name": ["\u00c7ekmek\u00f6y"], "location_url": null},
{"location_hash_id": ["81852833-f448-45c5-b3d9-5620054933b1"], "location_name": ["\u00c7ekmek\u00f6y (Alemda\u011f Mah.)"], "location_url": null},
{"location_hash_id": ["9bee4a2a-e90b-40ed-8f99-5a5074df39a9"], "location_name": ["\u00c7ekmek\u00f6y (\u00c7aml\u0131k Mah.)"], "location_url": null},
{"location_hash_id": ["ca46119c-828f-4321-b067-1863f3240744"], "location_name": ["\u00c7ekmek\u00f6y (Madenler Mah.)"], "location_url": null},
{"location_hash_id": ["619cdc77-bba6-4464-ac12-79954410b770"], "location_name": ["\u00c7ekmek\u00f6y (Ta\u015fdelen)"], "location_url": null},
{"location_hash_id": ["91483221-7ec0-4780-87b3-f2621adf6aaa"], "location_name": ["\u00c7eliktepe"], "location_url": null},
{"location_hash_id": ["4c669714-028a-4754-8064-f6c32b8a56a4"], "location_name": ["\u00c7emberlita\u015f"], "location_url": null},
{"location_hash_id": ["89701872-4be6-4a9d-8938-75b863b6f863"], "location_name": ["\u00c7emenzar"], "location_url": null},
{"location_hash_id": ["e300ffa8-e466-4a1a-bfc4-f527f82768d5"], "location_name": ["\u00c7engelk\u00f6y"], "location_url": null},
{"location_hash_id": ["e1b70ef8-2e20-4984-9f74-c1ba4b626a37"], "location_name": ["\u00c7engelk\u00f6y (Doktorlar Sit.)"], "location_url": null},
{"location_hash_id": ["99e606a0-9ba9-45e0-b25c-c57eba318f80"], "location_name": ["\u00c7engelk\u00f6y (Nato Yolu)"], "location_url": null},
{"location_hash_id": ["64921318-8482-4052-bd69-683b298472d7"], "location_name": ["\u00c7i\u00e7ek\u00e7i"], "location_url": null},
{"location_hash_id": ["60864cc5-d202-4f82-8f11-4f0d62e746c7"], "location_name": ["\u00c7iftehavuzlar"], "location_url": null},
{"location_hash_id": ["b49556f6-25d5-460a-9daa-fc78e9188eac"], "location_name": ["\u00c7i\u011fdem Mahallesi"], "location_url": null},
{"location_hash_id": ["4a020a9f-7e28-48e3-a881-3b9d1d9d98be"], "location_name": ["Davutpa\u015fa"], "location_url": null},
{"location_hash_id": ["3c9ec804-d7fa-49aa-9674-f0e7de0cd087"], "location_name": ["Dikilita\u015f"], "location_url": null},
{"location_hash_id": ["3cf966b7-1700-48b6-af60-e0d4785890c3"], "location_name": ["Dolapdere"], "location_url": null},
{"location_hash_id": ["29a52d7e-b8ae-4650-b1c4-575d0fca95ff"], "location_name": ["Dragos"], "location_url": null},
{"location_hash_id": ["5ebf596f-79ab-4ed6-8e57-2792f8bf163d"], "location_name": ["Edirnekap\u0131"], "location_url": null},
{"location_hash_id": ["265ff97e-1625-4e7c-baa1-777b30aac8d6"], "location_name": ["Elmada\u011f"], "location_url": null},
{"location_hash_id": ["1b36c94e-0fd0-4bee-9b7f-eadabc121738"], "location_name": ["Emin\u00f6n\u00fc (Merkez)"], "location_url": null},
{"location_hash_id": ["df57761a-1649-46fe-ad86-edf97a0c2737"], "location_name": ["Emirgan"], "location_url": null},
{"location_hash_id": ["c59bf141-ee3d-417c-a0f4-a0a25ba1367b"], "location_name": ["Erenk\u00f6y"], "location_url": null},
{"location_hash_id": ["b25c4f05-e0d2-4860-b4b5-6e0bf962787d"], "location_name": ["Erenk\u00f6y (\u00dcst)"], "location_url": null},
{"location_hash_id": ["79bad55d-b4d2-429f-9522-170ce1a33197"], "location_name": ["Esenler"], "location_url": null},
{"location_hash_id": ["de86e131-9c28-4038-ae19-1d007ca42df9"], "location_name": ["Esenler (At\u0131\u015falan\u0131)"], "location_url": null},
{"location_hash_id": ["9dade4d8-270f-4b7d-9c40-b7356c703118"], "location_name": ["Esentepe"], "location_url": null},
{"location_hash_id": ["c5994d46-0402-4016-9655-b542fa59fb92"], "location_name": ["Esenyurt (Cumhuriyet Mah.)"], "location_url": null},
{"location_hash_id": ["fa600d4d-5977-4e5f-ab68-45e165bf0e41"], "location_name": ["Esenyurt (G\u00fczelyurt Mah.)"], "location_url": null},
{"location_hash_id": ["34645acd-9b14-4a83-8431-738e5b855eef"], "location_name": ["Esenyurt (\u0130ncirtepe Mah.)"], "location_url": null},
{"location_hash_id": ["83bbc3ec-3393-4385-b779-f9a795ceea66"], "location_name": ["Esenyurt (K\u0131ra\u00e7)"], "location_url": null},
{"location_hash_id": ["d36b2dd4-2f5a-4102-8845-f9094360e2e6"], "location_name": ["Esenyurt (Mehter\u00e7e\u015fme Mah.)"], "location_url": null},
{"location_hash_id": ["b62f6504-8a13-49e5-be2d-4ba161a1f72a"], "location_name": ["Esenyurt (Merkez)"], "location_url": null},
{"location_hash_id": ["b65094ce-5ed0-4eca-bf1a-132da97df1e8"], "location_name": ["Esenyurt (Nam\u0131k Kemal Mah.)"], "location_url": null},
{"location_hash_id": ["5e0a0fc5-b0fc-47db-ade2-b7cb9528e9d6"], "location_name": ["Esenyurt (Saadetdere Mah.)"], "location_url": null},
{"location_hash_id": ["2d392a78-61ad-448a-933b-6532140eb94b"], "location_name": ["Esenyurt (Talatpa\u015fa Mah.)"], "location_url": null},
{"location_hash_id": ["8363ed99-73f5-4411-84aa-751eea4d697c"], "location_name": ["Esenyurt (Ye\u015filkent Mah.)"], "location_url": null},
{"location_hash_id": ["8515c9a2-d586-4790-a696-a633b44551cc"], "location_name": ["Ethemefendi (C.bost)"], "location_url": null},
{"location_hash_id": ["d9cc124c-e291-4902-9f98-9e0870098fa1"], "location_name": ["Ethemefendi (E.k\u00f6y)"], "location_url": null},
{"location_hash_id": ["32b6fe60-705b-4e98-be34-74738fed1252"], "location_name": ["Etiler"], "location_url": null},
{"location_hash_id": ["f36b4f20-5320-45ce-954c-7524edae4803"], "location_name": ["Etiler (FSM Mah.)"], "location_url": null},
{"location_hash_id": ["f11b98ff-65de-41bc-9536-ca0a28c463a5"], "location_name": ["Ey\u00fcp (Merkez)"], "location_url": null},
{"location_hash_id": ["2b5b4b1a-9131-4a31-94e3-ed5796c29260"], "location_name": ["Ey\u00fcp (Ni\u015fanca Mah.)"], "location_url": null},
{"location_hash_id": ["98c19f2a-e6f1-4827-9f1e-f83be1ffe1a4"], "location_name": ["Ey\u00fcp (Top\u00e7ular Mah.)"], "location_url": null},
{"location_hash_id": ["22677a60-c9d3-4940-b261-8e91d82a17cd"], "location_name": ["Fatih (Cankurtaran Mah.)"], "location_url": null},
{"location_hash_id": ["0fedfcd7-c38e-4862-8865-1244591a27bb"], "location_name": ["Fatih (Cerrahpa\u015fa Mah.)"], "location_url": null},
{"location_hash_id": ["412b4cce-54ef-47b5-b619-a42312c710ea"], "location_name": ["Fatih (Karag\u00fcmr\u00fck Mah.)"], "location_url": null},
{"location_hash_id": ["23bc1616-4c94-4f59-bc3a-2c3bfae76a63"], "location_name": ["Fatih (Mercan)"], "location_url": null},
{"location_hash_id": ["a86391f4-dcf8-4927-a0fa-cf4d37d0aa20"], "location_name": ["Fatih (Merkez)"], "location_url": null},
{"location_hash_id": ["e2e6f2d5-baaa-4229-b007-a83b04d0261f"], "location_name": ["Fatih (Silivri Kap\u0131 Mah.)"], "location_url": null},
{"location_hash_id": ["8d893650-c575-4ba7-a67c-0bcb14985aca"], "location_name": ["Fatih (\u015eehzadeba\u015f\u0131)"], "location_url": null},
{"location_hash_id": ["1820b4bd-21bc-4271-8d8b-ba17f7cb2125"], "location_name": ["Fenerbah\u00e7e"], "location_url": null},
{"location_hash_id": ["d2cc3bf3-10e8-479e-86af-cb80e285d5cc"], "location_name": ["Feneryolu"], "location_url": null},
{"location_hash_id": ["80a159cd-b12e-44ff-9738-5a275a9eefbe"], "location_name": ["Ferahevler"], "location_url": null},
{"location_hash_id": ["87985184-2e37-4eaf-90c0-5f0478b587ae"], "location_name": ["Ferik\u00f6y"], "location_url": null},
{"location_hash_id": ["29728fde-2643-4c05-b474-d9d9a09eb9d0"], "location_name": ["F\u0131nd\u0131kl\u0131"], "location_url": null},
{"location_hash_id": ["bc2b6295-6838-41df-ad5c-8d1dc1e83f01"], "location_name": ["F\u0131nd\u0131kzade"], "location_url": null},
{"location_hash_id": ["c4a9be7d-ab3f-490e-8916-411e9b16c23e"], "location_name": ["Fikirtepe"], "location_url": null},
{"location_hash_id": ["ca97f978-9072-4e40-889f-bdfa3133a278"], "location_name": ["Florya"], "location_url": null},
{"location_hash_id": ["d4cea2e5-b2d6-4f33-a6e4-113c9dc8303e"], "location_name": ["Florya (Bas\u0131nk\u00f6y)"], "location_url": null},
{"location_hash_id": ["1eb99410-0d20-4581-993f-4b11136f0c5e"], "location_name": ["Fulya"], "location_url": null},
{"location_hash_id": ["63b97145-2f25-4a63-90e3-efd35c6e389c"], "location_name": ["Gayrettepe"], "location_url": null},
{"location_hash_id": ["21df4a17-3d7a-4bcd-b993-259ce5c621d2"], "location_name": ["Gaziosmanpa\u015fa (Be\u015fy\u00fczevler)"], "location_url": null},
{"location_hash_id": ["2dc00a60-d835-44a5-945b-52165e9dc8c9"], "location_name": ["Gaziosmanpa\u015fa (K\u00fc\u00e7\u00fckk\u00f6y)"], "location_url": null},
{"location_hash_id": ["2af5c14f-1432-4a24-8f17-dbef4459f867"], "location_name": ["Gaziosmanpa\u015fa (Merkez)"], "location_url": null},
{"location_hash_id": ["c71de65b-5f04-4d8a-8185-cbbc5ee918fc"], "location_name": ["G\u00f6kt\u00fcrk Beldesi"], "location_url": null},
{"location_hash_id": ["6e142710-8ca2-4d62-8c55-97a398992a15"], "location_name": ["G\u00f6ztepe"], "location_url": null},
{"location_hash_id": ["57e0a6f1-2b1c-4dd6-9e73-bd14bedcf784"], "location_name": ["G\u00f6ztepe (\u00dcst)"], "location_url": null},
{"location_hash_id": ["289878bd-565e-4a61-9798-9bb89e5a465c"], "location_name": ["G\u00fcltepe"], "location_url": null},
{"location_hash_id": ["5d7e5d01-c519-4eba-9268-c4388ae60722"], "location_name": ["G\u00fcltepe (Telsizler Mah.)"], "location_url": null},
{"location_hash_id": ["53b6c81b-df5a-4223-b7b6-39543221fe25"], "location_name": ["G\u00fcm\u00fc\u015fsuyu"], "location_url": null},
{"location_hash_id": ["7e19e39c-e7e0-4129-bede-6a35fdff9862"], "location_name": ["G\u00fcne\u015fli (Bas\u0131n Ekspres Yolu)"], "location_url": null},
{"location_hash_id": ["fa77b037-cecf-440e-b492-1241821a0462"], "location_name": ["G\u00fcne\u015fli (Merkez)"], "location_url": null},
{"location_hash_id": ["ed72399b-dfc3-4963-abbe-8d42d1519e3c"], "location_name": ["G\u00fcne\u015fli (THY)"], "location_url": null},
{"location_hash_id": ["acae2237-9b70-4539-9d06-651b3239889e"], "location_name": ["G\u00fcng\u00f6ren (A. Nafiz G\u00fcrman Mah.)"], "location_url": null},
{"location_hash_id": ["c0fa8ccd-5e0d-4e52-9291-8017f6a9369a"], "location_name": ["G\u00fcng\u00f6ren (Ak\u0131nc\u0131lar Mah.)"], "location_url": null},
{"location_hash_id": ["4ade5b02-9839-4238-a7bc-c348e4b6d88f"], "location_name": ["G\u00fcng\u00f6ren (Gen\u00e7osman Mah.)"], "location_url": null},
{"location_hash_id": ["5cc4e962-4cba-4da9-8030-98b0337bbc3f"], "location_name": ["G\u00fcng\u00f6ren (G\u00fcne\u015ftepe Mah.)"], "location_url": null},
{"location_hash_id": ["adbcb869-abc9-45c2-aa5e-fbd5dbdd5fa5"], "location_name": ["G\u00fcng\u00f6ren (G\u00fcven Mah.)"], "location_url": null},
{"location_hash_id": ["9b3cdc51-e9cd-435c-8bf7-55256b506413"], "location_name": ["G\u00fcng\u00f6ren (Haznedar)"], "location_url": null},
{"location_hash_id": ["5aaa0fdd-3c63-417d-b36b-c596e5534884"], "location_name": ["G\u00fcng\u00f6ren (M. \u00c7akmak Mah.)"], "location_url": null},
{"location_hash_id": ["21806120-d5a7-45f2-b732-bc5b4581d456"], "location_name": ["G\u00fcng\u00f6ren (M. Nesih \u00d6zmen Mah.)"], "location_url": null},
{"location_hash_id": ["8a68564e-574f-42b4-9f41-07bcc95c72bf"], "location_name": ["G\u00fcng\u00f6ren (Merkez)"], "location_url": null},
{"location_hash_id": ["94df62f7-5b54-4723-b915-76148dbb86c1"], "location_name": ["G\u00fcng\u00f6ren (Sanayi Mah.)"], "location_url": null},
{"location_hash_id": ["f92dc471-4e5c-41e5-abbb-332fdfe69110"], "location_name": ["G\u00fcng\u00f6ren (Tozkoparan)"], "location_url": null},
{"location_hash_id": ["ba27c0d8-0fab-4c91-9a35-6545c3c4adb1"], "location_name": ["Had\u0131mk\u00f6y"], "location_url": null},
{"location_hash_id": ["1bb2106a-201b-4283-b542-7f9f1cb9b9c4"], "location_name": ["Had\u0131mk\u00f6y (Alkent 2000)"], "location_url": null},
{"location_hash_id": ["15174975-d4ad-4979-ba19-e67951984e20"], "location_name": ["Hal\u0131c\u0131o\u011flu"], "location_url": null},
{"location_hash_id": ["1ba42786-7ea7-4511-b8f9-7dd263ec36db"], "location_name": ["Halkal\u0131 (Atakent Mah.)"], "location_url": null},
{"location_hash_id": ["b1f5d554-9585-40be-b5da-ef42ec2cdf41"], "location_name": ["Halkal\u0131 (Bas\u0131n Ekspres Yolu)"], "location_url": null},
{"location_hash_id": ["5da201ea-4855-4066-b394-72fec4c9bad0"], "location_name": ["Halkal\u0131 (\u0130n\u00f6n\u00fc Mah.)"], "location_url": null},
{"location_hash_id": ["2a89dee8-9cb2-4575-b9de-4b4e097bfee1"], "location_name": ["Halkal\u0131 (\u0130stasyon Mah.)"], "location_url": null},
{"location_hash_id": ["4c91a846-6841-43fd-b2a7-8df40143bfe1"], "location_name": ["Halkal\u0131 (Merkez)"], "location_url": null},
{"location_hash_id": ["ef287d21-b418-4e19-94b2-73a134793ca8"], "location_name": ["Halkal\u0131 (Yar\u0131mburgaz Mah.)"], "location_url": null},
{"location_hash_id": ["a321dde8-bd58-4952-8547-5662cb2cffe5"], "location_name": ["Harbiye"], "location_url": null},
{"location_hash_id": ["1f415d24-f7b5-4476-855f-69aa7b8e85a9"], "location_name": ["Harem"], "location_url": null},
{"location_hash_id": ["a688dc98-101c-43cd-909e-7e2d69b46b84"], "location_name": ["Hasanpa\u015fa"], "location_url": null},
{"location_hash_id": ["2823d8b2-94e2-4d87-aabf-5352ea3d7e1d"], "location_name": ["Hasdal"], "location_url": null},
{"location_hash_id": ["c7a5666f-e3fe-45e1-a17c-10cb34af57e2"], "location_name": ["Hask\u00f6y"], "location_url": null},
{"location_hash_id": ["bc8c6ac9-21d9-4bfe-a597-2081329b230c"], "location_name": ["Haydarpa\u015fa"], "location_url": null},
{"location_hash_id": ["3e035f69-b22b-4e8b-9e5f-49c7e283217e"], "location_name": ["Hisar\u00fcst\u00fc"], "location_url": null},
{"location_hash_id": ["e62f978b-20b9-4070-a940-49186315359c"], "location_name": ["Hocapa\u015fa"], "location_url": null},
{"location_hash_id": ["83a43fb6-ecb1-4533-8bd2-98bb6d2b753a"], "location_name": ["\u0130\u00e7erenk\u00f6y"], "location_url": null},
{"location_hash_id": ["34dc4949-a1e1-4ca8-941e-b4848657d23b"], "location_name": ["\u0130\u00e7erenk\u00f6y (Carrefour)"], "location_url": null},
{"location_hash_id": ["797dbfed-76f8-40be-9182-0c18f1dc69b2"], "location_name": ["\u0130kitelli (Bas\u0131n Ekspres Yolu)"], "location_url": null},
{"location_hash_id": ["69ae4d5c-16a3-40ea-8c21-dda91242fc14"], "location_name": ["\u0130kitelli (Merkez)"], "location_url": null},
{"location_hash_id": ["23426d85-bb83-442a-860d-ab3a1779a13f"], "location_name": ["\u0130kitelli (Sanayi Sitesi)"], "location_url": null},
{"location_hash_id": ["1d94436a-48da-4dfd-a1db-2b4bc7bf0353"], "location_name": ["\u0130ncesu"], "location_url": null},
{"location_hash_id": ["44cd5bd6-a6d3-42d0-b263-3483111dbc2a"], "location_name": ["\u0130ncirlik\u00f6y"], "location_url": null},
{"location_hash_id": ["689a89e0-c155-4e27-b197-8b8a07cc3061"], "location_name": ["\u0130stinye"], "location_url": null},
{"location_hash_id": ["db5acf78-a06e-437a-8709-350d677c24a4"], "location_name": ["\u0130stinye (P\u0131nar Mah.)"], "location_url": null},
{"location_hash_id": ["123d7485-2a4d-49d2-a666-934d1c449455"], "location_name": ["\u0130stinye (Poligon Mah.)"], "location_url": null},
{"location_hash_id": ["35977925-6b26-4764-8c9a-a63200244367"], "location_name": ["Kabata\u015f"], "location_url": null},
{"location_hash_id": ["e90d52a0-65e1-463d-9031-ac6b19a1cd69"], "location_name": ["Kad\u0131k\u00f6y (Bahariye)"], "location_url": null},
{"location_hash_id": ["e0b46c42-6718-4c7c-95be-208e835acd6a"], "location_name": ["Kad\u0131k\u00f6y (Merkez)"], "location_url": null},
{"location_hash_id": ["af6becc6-8a19-44db-b488-a8e742a53d1d"], "location_name": ["Kad\u0131k\u00f6y (Rasimpa\u015fa)"], "location_url": null},
{"location_hash_id": ["be20a8a9-4e82-415a-83c0-ce9660a74ecf"], "location_name": ["Ka\u011f\u0131thane (\u00c7oban\u00e7e\u015fme)"], "location_url": null},
{"location_hash_id": ["716d3995-b46e-44fa-b445-fa26106de10e"], "location_name": ["Ka\u011f\u0131thane (G\u00fcrsel Mah.)"], "location_url": null},
{"location_hash_id": ["a8edfe02-c5bb-43e1-b2ec-08f2737d84cc"], "location_name": ["Ka\u011f\u0131thane (Merkez)"], "location_url": null},
{"location_hash_id": ["7f0fe717-d1a2-4f11-a748-a0a995729ba7"], "location_name": ["Ka\u011f\u0131thane (Nurtepe Mah.)"], "location_url": null},
{"location_hash_id": ["cba8828f-60ec-4bdf-97cf-641d2c2d5db9"], "location_name": ["Ka\u011f\u0131thane (Talatpa\u015fa Mah.)"], "location_url": null},
{"location_hash_id": ["27e2adfa-73ca-4b39-81b5-14f33a4460a0"], "location_name": ["Kalam\u0131\u015f"], "location_url": null},
{"location_hash_id": ["570e8d20-f7a2-4f2b-a666-d5e0afa5f412"], "location_name": ["Kandilli"], "location_url": null},
{"location_hash_id": ["affa11b6-bcb0-406b-9d11-c8ad8b9667a0"], "location_name": ["Kandilli (Rasathane)"], "location_url": null},
{"location_hash_id": ["948e0ee1-b0e2-4463-af0c-17983448330f"], "location_name": ["Kanl\u0131ca"], "location_url": null},
{"location_hash_id": ["d4874840-4083-4c4f-ac9a-d27ffecead31"], "location_name": ["Karak\u00f6y"], "location_url": null},
{"location_hash_id": ["472c9609-b0c0-49f1-b1ae-1618c81bd7de"], "location_name": ["Karak\u00f6y (Kemeralt\u0131)"], "location_url": null},
{"location_hash_id": ["278292fe-a7f7-418b-83bf-f664e06bf372"], "location_name": ["Kartal (Atalar Mah.)"], "location_url": null},
{"location_hash_id": ["90ffe1a4-b4d3-4dd8-8f26-edb4cd456314"], "location_name": ["Kartal (Cevizli Mah.)"], "location_url": null},
{"location_hash_id": ["f0e11fc7-a784-4289-9c0f-fe2a2d93fa2a"], "location_name": ["Kartal (Cumhuriyet Mah.)"], "location_url": null},
{"location_hash_id": ["36436e4c-b5e6-4e91-a704-df30dad14891"], "location_name": ["Kartal (\u00c7avu\u015fo\u011flu Mah.)"], "location_url": null},
{"location_hash_id": ["16eeff18-f759-4572-9708-4c80495f1206"], "location_name": ["Kartal (Esentepe Mah.)"], "location_url": null},
{"location_hash_id": ["90ebfb8d-b5f5-44e1-9189-0b05538e2c0e"], "location_name": ["Kartal (G\u00fcm\u00fc\u015fp\u0131nar Mah.)"], "location_url": null},
{"location_hash_id": ["6c074fd3-a611-420a-a8a8-c39dd346a750"], "location_name": ["Kartal (H\u00fcrriyet Mah.)"], "location_url": null},
{"location_hash_id": ["fd8e3b28-9a21-49f9-ba53-22a3b4b8754a"], "location_name": ["Kartal (Karl\u0131ktepe Mah.)"], "location_url": null},
{"location_hash_id": ["acbf3e74-b57f-4407-821c-583074be7828"], "location_name": ["Kartal (Kordonboyu Mah.)"], "location_url": null},
{"location_hash_id": ["be21799b-7100-493c-b1a4-526a9228ad46"], "location_name": ["Kartal (Merkez)"], "location_url": null},
{"location_hash_id": ["128d33dd-ab8a-47a4-9fe3-56253cb12eac"], "location_name": ["Kartal (Orhantepe Mah.)"], "location_url": null},
{"location_hash_id": ["2cdcbff1-931f-4ea5-acef-043d2ff7a6dc"], "location_name": ["Kartal (Pendik)"], "location_url": null},
{"location_hash_id": ["b7023dfb-19d1-4c9c-af6f-c5a611d3792a"], "location_name": ["Kartal (Petrol-\u0130\u015f Mah.)"], "location_url": null},
{"location_hash_id": ["b7a9259e-aea2-4627-975a-33598d0b409b"], "location_name": ["Kartal (So\u011fanl\u0131k Orta Mah.)"], "location_url": null},
{"location_hash_id": ["50dc5ca0-cead-4d47-b6f2-09ad1241fbf9"], "location_name": ["Kartal (So\u011fanl\u0131k Yeni Mah.)"], "location_url": null},
{"location_hash_id": ["511a971c-2553-4bfd-81ff-e6b201eec887"], "location_name": ["Kartal (Topselvi Mah.)"], "location_url": null},
{"location_hash_id": ["607af33c-6a10-4b3e-aca0-379820e65baa"], "location_name": ["Kartal (U\u011fur Mumcu)"], "location_url": null},
{"location_hash_id": ["6833dffe-f661-459d-badc-78d244b8a7c4"], "location_name": ["Kartal (Yakac\u0131k Mah.)"], "location_url": null},
{"location_hash_id": ["818ac0d5-68b8-432e-a370-08727c4faf45"], "location_name": ["Kartal (Yal\u0131 Mah.)"], "location_url": null},
{"location_hash_id": ["390a7b3a-e2e2-43d3-a9c4-fce2a64a1c08"], "location_name": ["Kartal (Yukar\u0131 Mah.)"], "location_url": null},
{"location_hash_id": ["61480a83-5b1f-4c50-81b3-8bbee8f96ed5"], "location_name": ["Kartal (Yunus Mah.)"], "location_url": null},
{"location_hash_id": ["e6469ddd-e859-4bdd-9357-c0e3092b5322"], "location_name": ["Kas\u0131mpa\u015fa"], "location_url": null},
{"location_hash_id": ["01850b75-8af6-47ba-bed2-486b5d07c802"], "location_name": ["Kavac\u0131k"], "location_url": null},
{"location_hash_id": ["ac63524a-18a0-48d0-8b90-98346517cc5b"], "location_name": ["Kay\u0131\u015fda\u011f\u0131"], "location_url": null},
{"location_hash_id": ["fa138a1a-dd1b-41b4-9671-b8d3260b4cd5"], "location_name": ["Kay\u0131\u015fda\u011f\u0131 (F\u0131nd\u0131kl\u0131 Mah.)"], "location_url": null},
{"location_hash_id": ["9338bc1e-03f3-40e6-92f1-ab7e04c7b1e0"], "location_name": ["Kay\u0131\u015fda\u011f\u0131 (\u0130n\u00f6n\u00fc Mah.)"], "location_url": null},
{"location_hash_id": ["81590fca-cdb1-4ae5-844a-94e1b25689a3"], "location_name": ["Kazasker"], "location_url": null},
{"location_hash_id": ["52d1501b-90ba-4833-9aaf-cecc58038a39"], "location_name": ["Kemerburgaz"], "location_url": null},
{"location_hash_id": ["f2b0fb12-3205-4fb2-8442-67eb661d4030"], "location_name": ["K\u0131nal\u0131ada"], "location_url": null},
{"location_hash_id": ["35ec0ab1-134f-4f10-a721-241a6d23bdf4"], "location_name": ["K\u0131s\u0131kl\u0131"], "location_url": null},
{"location_hash_id": ["4881619f-e728-4633-9e80-1d3653d93c12"], "location_name": ["K\u0131z\u0131ltoprak"], "location_url": null},
{"location_hash_id": ["b101dd5a-3d1b-4736-bca9-1bee56434f90"], "location_name": ["Kirazl\u0131k\u00f6y\u00fc"], "location_url": null},
{"location_hash_id": ["403e8b2f-4dd4-4e18-98cf-92c43a5b1b94"], "location_name": ["Kire\u00e7burnu"], "location_url": null},
{"location_hash_id": ["c4168c98-9f34-43cc-9781-09edbe1cd2c4"], "location_name": ["Kocamustafapa\u015fa"], "location_url": null},
{"location_hash_id": ["8bcc6a51-3ecb-4b5e-9aad-52513b38ef3c"], "location_name": ["Kocasinan"], "location_url": null},
{"location_hash_id": ["0b6daa5e-aaac-4a53-956c-4ddfa5dd6472"], "location_name": ["Ko\u015fuyolu"], "location_url": null},
{"location_hash_id": ["d03ae1eb-5265-4bcb-ac77-b25a147fa59d"], "location_name": ["Kozyata\u011f\u0131"], "location_url": null},
{"location_hash_id": ["68060781-0bc5-47f3-8a7f-aba796190b26"], "location_name": ["Kumkap\u0131"], "location_url": null},
{"location_hash_id": ["b3219838-1981-4b8b-a862-9aebae185cab"], "location_name": ["Kurtk\u00f6y (Harmandere Mah.)"], "location_url": null},
{"location_hash_id": ["c1ea4c30-0a4c-46d8-927b-9ad3ca28e012"], "location_name": ["Kurtk\u00f6y (Merkez)"], "location_url": null},
{"location_hash_id": ["34fbea52-aff9-4ba8-acec-38a9326dc863"], "location_name": ["Kurtk\u00f6y (Orhangazi Mah.)"], "location_url": null},
{"location_hash_id": ["1f33687b-eb81-4f02-9f18-f0c54f77e375"], "location_name": ["Kurtk\u00f6y (\u015eeyhli Mah.)"], "location_url": null},
{"location_hash_id": ["78ef94f6-7f87-4d54-9959-45e99d55d9e2"], "location_name": ["Kurtk\u00f6y (Yeni\u015fehir Mah.)"], "location_url": null},
{"location_hash_id": ["fe23f974-2ab6-4557-9d4e-b25af3c1aec8"], "location_name": ["Kurtulu\u015f"], "location_url": null},
{"location_hash_id": ["0fa84fc5-8583-4da7-b30c-d2945e14278a"], "location_name": ["Kuru\u00e7e\u015fme"], "location_url": null},
{"location_hash_id": ["e9d002bc-4584-4623-ac47-dd6068152e66"], "location_name": ["Ku\u015ftepe"], "location_url": null},
{"location_hash_id": ["8a1d9955-8407-4aaf-8db2-87dd65e0552c"], "location_name": ["Kuyuba\u015f\u0131"], "location_url": null},
{"location_hash_id": ["5efe5e9d-e529-466b-83cd-b3b5d00da231"], "location_name": ["Kuzguncuk"], "location_url": null},
{"location_hash_id": ["db786062-b090-4b11-ad66-ec8f146bc01c"], "location_name": ["K\u00fc\u00e7\u00fckbakkalk\u00f6y"], "location_url": null},
{"location_hash_id": ["1158e725-fe90-4377-8f25-a24d5f39e776"], "location_name": ["K\u00fc\u00e7\u00fck\u00e7ekmece (Be\u015fyol)"], "location_url": null},
{"location_hash_id": ["6eedc0e1-49b5-4532-bb11-21da907c1dbb"], "location_name": ["K\u00fc\u00e7\u00fck\u00e7ekmece (Cennet Mah.)"], "location_url": null},
{"location_hash_id": ["fd256fb3-5092-4cd8-97a4-d2a601789f2e"], "location_name": ["K\u00fc\u00e7\u00fck\u00e7ekmece (Cumhuriyet Mah.)"], "location_url": null},
{"location_hash_id": ["c1ae78cb-dacd-4887-9414-0cbba483a17e"], "location_name": ["K\u00fc\u00e7\u00fck\u00e7ekmece (Fatih Mah.)"], "location_url": null},
{"location_hash_id": ["8d1ae31e-0d0b-408e-bbbd-b67be9373f35"], "location_name": ["K\u00fc\u00e7\u00fck\u00e7ekmece (Fevzi \u00c7akmak Mah.)"], "location_url": null},
{"location_hash_id": ["2d5e74ea-e9b9-411b-9541-b896ce2c8369"], "location_name": ["K\u00fc\u00e7\u00fck\u00e7ekmece (G\u00fcltepe Mah.)"], "location_url": null},
{"location_hash_id": ["f74eb0ac-c483-4f25-bc8b-764b850d6dad"], "location_name": ["K\u00fc\u00e7\u00fck\u00e7ekmece (Kanarya Mah.)"], "location_url": null},
{"location_hash_id": ["8a1964cc-880f-4167-a5b6-064abf8c6fcb"], "location_name": ["K\u00fc\u00e7\u00fck\u00e7ekmece (Kartaltepe Mah.) "], "location_url": null},
{"location_hash_id": ["f392bdb3-1bb8-46b9-a5b0-2b80f5d9a860"], "location_name": ["K\u00fc\u00e7\u00fck\u00e7ekmece (Kemalpa\u015fa Mah.)"], "location_url": null},
{"location_hash_id": ["ac428bb7-612c-45a1-9941-f41153989969"], "location_name": ["K\u00fc\u00e7\u00fck\u00e7ekmece (Merkez)"], "location_url": null},
{"location_hash_id": ["733271c3-4ff2-4070-9003-f2ec92e3a8e1"], "location_name": ["K\u00fc\u00e7\u00fck\u00e7ekmece (S\u00f6\u011f\u00fctl\u00fc\u00e7e\u015fme Mah.)"], "location_url": null},
{"location_hash_id": ["37563979-cc7a-46e3-94d7-0f581041782e"], "location_name": ["K\u00fc\u00e7\u00fck\u00e7ekmece (Sultanmurat Mah.)"], "location_url": null},
{"location_hash_id": ["629f53ed-51ce-4c36-b850-326988c46ace"], "location_name": ["K\u00fc\u00e7\u00fck\u00e7ekmece (Tevfikbey Mah.)"], "location_url": null},
{"location_hash_id": ["b4a20dbd-72c9-48c3-9e55-73aafdb38d2f"], "location_name": ["K\u00fc\u00e7\u00fck\u00e7ekmece (Yenimahalle)"], "location_url": null},
{"location_hash_id": ["1e5ed96d-f011-4cf4-b7b5-5ca3b6b0f0cb"], "location_name": ["K\u00fc\u00e7\u00fck\u00e7ekmece (Ye\u015filova Mah.)"], "location_url": null},
{"location_hash_id": ["e2a9bede-b3aa-4248-9e58-418c8692cd36"], "location_name": ["K\u00fc\u00e7\u00fcksu"], "location_url": null},
{"location_hash_id": ["908a1249-12ab-476e-9ca6-867462bc21aa"], "location_name": ["Laleli"], "location_url": null},
{"location_hash_id": ["7d298e35-8918-4a94-a792-a27dd669b09c"], "location_name": ["Langa"], "location_url": null},
{"location_hash_id": ["ce316480-6f2f-4fa8-887f-184bb434fb41"], "location_name": ["Levent"], "location_url": null},
{"location_hash_id": ["c5459762-25d6-44c0-865c-e1c16e6dbd66"], "location_name": ["Levent (Levaz\u0131m)"], "location_url": null},
{"location_hash_id": ["d921aa83-6fbf-442c-aeec-469994794c9c"], "location_name": ["Levent (Plazalar)"], "location_url": null},
{"location_hash_id": ["2e82e90e-f8f7-4a41-a8cf-7d7741629688"], "location_name": ["Levent (Yeni)"], "location_url": null},
{"location_hash_id": ["cbc270ad-81f7-42cb-9d10-fe349ef05356"], "location_name": ["Levent 4."], "location_url": null},
{"location_hash_id": ["b1d5c3c7-4b23-4abc-83b3-392bc5c3460d"], "location_name": ["Levent 4. (Emniyetevler)"], "location_url": null},
{"location_hash_id": ["130d0710-d0e6-470d-bb57-93849ab321d6"], "location_name": ["Ma\u00e7ka"], "location_url": null},
{"location_hash_id": ["7f8b6044-9cc8-4683-a8f3-607d9b9adf7c"], "location_name": ["Mahmutbey (Bas\u0131n Ekspres Yolu)"], "location_url": null},
{"location_hash_id": ["a43e816d-f5ae-4c19-a7a6-82a0e021c51e"], "location_name": ["Maltepe (Altay\u00e7e\u015fme Mah.)"], "location_url": null},
{"location_hash_id": ["ca983c8c-36e3-4763-8609-34ba194a8fdb"], "location_name": ["Maltepe (Alt\u0131ntepe Mah.)"], "location_url": null},
{"location_hash_id": ["91b50fde-ac75-40a0-bfc7-a5fbc4267962"], "location_name": ["Maltepe (Ayd\u0131nevler Mah.)"], "location_url": null},
{"location_hash_id": ["f108b338-75f0-4821-91ec-42eed28643ce"], "location_name": ["Maltepe (Ba\u011flarba\u015f\u0131 Mah.)"], "location_url": null},
{"location_hash_id": ["5729a9ea-8d68-4d5f-ade0-f69cb674f874"], "location_name": ["Maltepe (Ba\u015f\u0131b\u00fcy\u00fck Mah.)"], "location_url": null},
{"location_hash_id": ["a2b16d0b-61b0-4285-ac81-019dcdb94479"], "location_name": ["Maltepe (Cevizli Mah.)"], "location_url": null},
{"location_hash_id": ["7cc110f7-dfb9-43f7-9882-8240d3a36cad"], "location_name": ["Maltepe (Esenkent Mah.)"], "location_url": null},
{"location_hash_id": ["621755ce-cfc5-49d7-9b28-654908dd4f54"], "location_name": ["Maltepe (Feyzullah Mah.)"], "location_url": null},
{"location_hash_id": ["7e84f250-b420-4fde-b937-0c14263fd608"], "location_name": ["Maltepe (Girne Mah.)"], "location_url": null},
{"location_hash_id": ["b9b1b2b8-18f9-45d0-aa4a-e15ca6cf05ae"], "location_name": ["Maltepe (G\u00fclsuyu Mah.)"], "location_url": null},
{"location_hash_id": ["0a02c559-ce8f-4449-a0d3-cc01f54e831a"], "location_name": ["Maltepe (\u0130dealtepe Mah.)"], "location_url": null},
{"location_hash_id": ["aee7c745-58e3-43a1-9e3c-c79548412786"], "location_name": ["Maltepe (K\u00fc\u00e7\u00fckyal\u0131 Mah.)"], "location_url": null},
{"location_hash_id": ["05e7e932-4b60-4246-84ca-070f8c95654d"], "location_name": ["Maltepe (Merkez)"], "location_url": null},
{"location_hash_id": ["96d4546f-4877-45c8-9ebb-26657d3ca177"], "location_name": ["Maltepe (Yal\u0131 Mah.)"], "location_url": null},
{"location_hash_id": ["fc944122-2c28-4e41-a938-3659393af25c"], "location_name": ["Maltepe (Z\u00fcmr\u00fctevler Mah.)"], "location_url": null},
{"location_hash_id": ["7d8ca232-65ae-4942-998c-469d6078dbc2"], "location_name": ["Maslak"], "location_url": null},
{"location_hash_id": ["a2c2ffb0-31ff-4835-b883-de84f3b1bc1f"], "location_name": ["Maslak (Dar\u00fc\u015f\u015fafaka)"], "location_url": null},
{"location_hash_id": ["33433caf-9d48-44a2-97d3-ae8e3d512a55"], "location_name": ["Maslak (\u0130T\u00dc Kamp\u00fcs\u00fc)"], "location_url": null},
{"location_hash_id": ["baa6ea5d-6a89-4afd-ad8d-f7d84815a936"], "location_name": ["Mecidiyek\u00f6y"], "location_url": null},
{"location_hash_id": ["d872b994-1a84-484a-b2a8-6c7b73b1c424"], "location_name": ["Mecidiyek\u00f6y (Dereboyu)"], "location_url": null},
{"location_hash_id": ["beacd542-ecd8-41e0-b6ca-23abcb36565f"], "location_name": ["Mecidiyek\u00f6y (G\u00fclba\u011f)"], "location_url": null},
{"location_hash_id": ["640a2ce1-53b2-4fb2-b412-82e4980949aa"], "location_name": ["Mecidiyek\u00f6y (Ortaklar)"], "location_url": null},
{"location_hash_id": ["00ffd16f-a5f5-40fb-81ec-a0879d7e1d36"], "location_name": ["Menek\u015fe"], "location_url": null},
{"location_hash_id": ["cee714b8-7230-4a0a-ad76-4310a4dc4744"], "location_name": ["Merdivenk\u00f6y"], "location_url": null},
{"location_hash_id": ["36db6efa-7904-4eee-baf1-c2446de33712"], "location_name": ["Merter"], "location_url": null},
{"location_hash_id": ["6fb210b5-9ba5-4b53-84b8-5aafe4632c05"], "location_name": ["Moda"], "location_url": null},
{"location_hash_id": ["65b361e2-5bc4-4442-8918-4eed92b45076"], "location_name": ["Mutluk\u00f6y"], "location_url": null},
{"location_hash_id": ["ca14f03b-6bf9-4ff5-b4a8-141a523871af"], "location_name": ["Nakka\u015ftepe"], "location_url": null},
{"location_hash_id": ["09dfea80-e99a-4f67-8983-e751d990c13c"], "location_name": ["Ni\u015fanta\u015f\u0131"], "location_url": null},
{"location_hash_id": ["4a0c07e9-75f5-4458-9fba-c61dce5de63b"], "location_name": ["Okmeydan\u0131"], "location_url": null},
{"location_hash_id": ["f916ae36-3d14-46ff-b41f-49e8e5e3e940"], "location_name": ["Okmeydan\u0131 (Perpa)"], "location_url": null},
{"location_hash_id": ["37dccc8d-5f5f-4010-9df6-b9d1cd023367"], "location_name": ["Ortak\u00f6y"], "location_url": null},
{"location_hash_id": ["214ecff1-fb1e-4a0f-86ae-9d59024a8405"], "location_name": ["Osmanbey"], "location_url": null},
{"location_hash_id": ["4e96beef-f488-4771-8d33-d35c73cc2294"], "location_name": ["\u00d6merli"], "location_url": null},
{"location_hash_id": ["4568b4a3-ed5a-4f8e-bce9-44188aec4d48"], "location_name": ["Pangalt\u0131"], "location_url": null},
{"location_hash_id": ["a2bbe4fd-5470-4dc7-a144-8976c020a758"], "location_name": ["Pendik (Alt Kaynarca)"], "location_url": null},
{"location_hash_id": ["7f6540c3-d393-4c41-883c-b9fbbe7de0fe"], "location_name": ["Pendik (Bah\u00e7elievler Mah.)"], "location_url": null},
{"location_hash_id": ["2154b135-95ce-47b9-be73-85be29510bf5"], "location_name": ["Pendik (Bat\u0131 Mah.)"], "location_url": null},
{"location_hash_id": ["2bf8287a-4e33-4814-9301-0169f58c1edc"], "location_name": ["Pendik (\u00c7am\u00e7e\u015fme Mah.)"], "location_url": null},
{"location_hash_id": ["c33d0ba8-0a7b-45a7-9977-718db5f98b6a"], "location_name": ["Pendik (Do\u011fu Mah.)"], "location_url": null},
{"location_hash_id": ["70a0db57-2635-405c-a388-04e4c26d541c"], "location_name": ["Pendik (Dolayoba)"], "location_url": null},
{"location_hash_id": ["d35525ff-82c8-40c6-ac7b-20b99343044f"], "location_name": ["Pendik (Dumlup\u0131nar Mah.)"], "location_url": null},
{"location_hash_id": ["d2b9fb30-69a8-48d0-b136-c885cd3044ce"], "location_name": ["Pendik (Esenler Mah.)"], "location_url": null},
{"location_hash_id": ["cbbdbe1c-1a5a-4e55-8d44-cee603e809ea"], "location_name": ["Pendik (Esenyal\u0131 Mah.)"], "location_url": null},
{"location_hash_id": ["ae914444-8b55-4b34-9adc-e563725cf425"], "location_name": ["Pendik (G\u00fczelyal\u0131 Mah.)"], "location_url": null},
{"location_hash_id": ["ddcff616-dd3f-4adf-bf2b-69a35380ba52"], "location_name": ["Pendik (Kavakp\u0131nar Mah.)"], "location_url": null},
{"location_hash_id": ["a703b710-969f-4647-9568-80b373e498a8"], "location_name": ["Pendik (Merkez)"], "location_url": null},
{"location_hash_id": ["1bd6c5cc-4895-4fcf-8e89-c836e455c04b"], "location_name": ["Pendik (Sapan Ba\u011flar\u0131 Mah.)"], "location_url": null},
{"location_hash_id": ["e5eab6ba-a2fe-4e4c-a42f-29f1fcddd3f9"], "location_name": ["Pendik (Velibaba Mah.)"], "location_url": null},
{"location_hash_id": ["a1806e71-5dce-4d92-b3eb-82138bde662c"], "location_name": ["Pendik (Yayalar Mah.)"], "location_url": null},
{"location_hash_id": ["2d1f7b93-2002-40a1-9e82-72a50ab10ba7"], "location_name": ["Pendik (Yeni Mah.)"], "location_url": null},
{"location_hash_id": ["d2b32531-a8fe-4f1b-9a67-f67aeaaf668f"], "location_name": ["Pendik (Ye\u015filba\u011flar Mah.)"], "location_url": null},
{"location_hash_id": ["1615fa41-e7e2-4e9c-b8bc-78eb0fe3ae51"], "location_name": ["Plaj Yolu"], "location_url": null},
{"location_hash_id": ["135982c0-2688-4e5a-bb08-d3de9a6a71f4"], "location_name": ["Rami"], "location_url": null},
{"location_hash_id": ["6797b5eb-b893-45fb-a7c4-677825d88f94"], "location_name": ["Re\u015fitpa\u015fa"], "location_url": null},
{"location_hash_id": ["8be0b051-a432-4afb-844b-40a9f35febeb"], "location_name": ["Rumelihisar\u0131"], "location_url": null},
{"location_hash_id": ["b3b77d94-f31d-4cbe-8ca3-62fd59d0c78c"], "location_name": ["Sahray\u0131cedit"], "location_url": null},
{"location_hash_id": ["7fd75861-eac1-4be6-ad2e-694bfd7c229e"], "location_name": ["Sal\u0131pazar\u0131"], "location_url": null},
{"location_hash_id": ["63ae47ac-3d8e-427c-887b-174698cf6136"], "location_name": ["Samand\u0131ra"], "location_url": null},
{"location_hash_id": ["16dfd2ba-24b9-43eb-8584-02dac189a6ee"], "location_name": ["Samatya"], "location_url": null},
{"location_hash_id": ["4f6dd75f-088b-478a-af73-08696bd27de4"], "location_name": ["Sanayi Mah."], "location_url": null},
{"location_hash_id": ["817997b9-6b78-4bb4-bc3d-5e85879ee2ad"], "location_name": ["Sancaktepe (Merkez)"], "location_url": null},
{"location_hash_id": ["46e168f1-7e0b-47d7-afe3-cae08ab65e0b"], "location_name": ["Sancaktepe (Yenido\u011fan)"], "location_url": null},
{"location_hash_id": ["0c7ab2fd-3e50-4f4a-8fe7-b46124e2322f"], "location_name": ["Sar\u0131gazi"], "location_url": null},
{"location_hash_id": ["56a3c455-997c-485a-83dc-3edc7ed61189"], "location_name": ["Sar\u0131yer (Acarlar)"], "location_url": null},
{"location_hash_id": ["f7865775-e847-4c8a-b585-963de686b3ef"], "location_name": ["Sar\u0131yer (Ar\u0131k\u00f6y)"], "location_url": null},
{"location_hash_id": ["ca39893a-cbf5-469e-99dc-d7f7f423f3be"], "location_name": ["Sar\u0131yer (Bah\u00e7ek\u00f6y)"], "location_url": null},
{"location_hash_id": ["e17846c9-fba1-407d-9714-e63b0747fb95"], "location_name": ["Sar\u0131yer (B\u00fcy\u00fckdere)"], "location_url": null},
{"location_hash_id": ["c3068ceb-f745-40d7-9f0f-9748389f695e"], "location_name": ["Sar\u0131yer (Demircik\u00f6y)"], "location_url": null},
{"location_hash_id": ["ceae6513-cfbb-440e-afbb-f17152961fea"], "location_name": ["Sar\u0131yer (Kilyos)"], "location_url": null},
{"location_hash_id": ["43f5d4ca-190e-4d4e-9aa8-cff9de0f906d"], "location_name": ["Sar\u0131yer (Ko\u00e7 \u00dcniv.)"], "location_url": null},
{"location_hash_id": ["9af7a67a-4f61-45a5-9573-5cd238bf3f0c"], "location_name": ["Sar\u0131yer (Maden)"], "location_url": null},
{"location_hash_id": ["5b1cf23e-9a96-4555-a8dc-6f453734d240"], "location_name": ["Sar\u0131yer (Merkez)"], "location_url": null},
{"location_hash_id": ["9605810e-c78e-4c92-891e-f8d2a4ec66b2"], "location_name": ["Sar\u0131yer (Rumelifeneri Mah.)"], "location_url": null},
{"location_hash_id": ["2bc0ac19-2f92-4aad-b880-100590259dc2"], "location_name": ["Sar\u0131yer (Rumelikava\u011f\u0131 Mah.)"], "location_url": null},
{"location_hash_id": ["9005bef1-5514-4814-9ea1-fca6d0152655"], "location_name": ["Sefak\u00f6y"], "location_url": null},
{"location_hash_id": ["6f756fa3-3e11-4882-999f-b0cd4eae4d2d"], "location_name": ["Selami\u00e7e\u015fme"], "location_url": null},
{"location_hash_id": ["4fda408f-4a3f-455b-b24e-dde79441c17c"], "location_name": ["Seyrantepe"], "location_url": null},
{"location_hash_id": ["57a1bdb8-7640-4510-95e0-11dc19a86a1e"], "location_name": ["S\u0131raselviler"], "location_url": null},
{"location_hash_id": ["94f57c2c-82ea-4223-a1b7-cec5a69a6388"], "location_name": ["Silivri"], "location_url": null},
{"location_hash_id": ["970b9eeb-20a3-4903-8ed1-58d7758ebfaf"], "location_name": ["Sirkeci"], "location_url": null},
{"location_hash_id": ["b98c4128-9114-4445-95cf-495424234739"], "location_name": ["Suadiye"], "location_url": null},
{"location_hash_id": ["2607e5ec-62eb-49b7-9139-f525e3a067f6"], "location_name": ["Sultanahmet"], "location_url": null},
{"location_hash_id": ["0526536d-b9f0-4ec2-b776-22bad205050e"], "location_name": ["Sultanbeyli"], "location_url": null},
{"location_hash_id": ["010035f4-7cc5-4dd1-bcef-6a132d4b2e26"], "location_name": ["Sultanbeyli (Abdurrahman Gazi Mah.)"], "location_url": null},
{"location_hash_id": ["d8ce7576-6a5b-4a5b-b620-3afd07a79a75"], "location_name": ["Sultanbeyli (Ahmet Yesevi Mah.)"], "location_url": null},
{"location_hash_id": ["6d114208-fe32-4f2f-89f2-60ef2f2f36be"], "location_name": ["Sultanbeyli (Fatih Mah.)"], "location_url": null},
{"location_hash_id": ["e0dc6011-24ac-491c-aca4-e93bb39452bb"], "location_name": ["Sultanbeyli (Mecidiye Mah.)"], "location_url": null},
{"location_hash_id": ["690572f7-38fd-4286-bb18-405ca8e9327a"], "location_name": ["Sultanbeyli (Mimar Sinan Mah.)"], "location_url": null},
{"location_hash_id": ["ee996578-5f77-421a-a95d-f452a0b470a6"], "location_name": ["Sultanbeyli (Necip Faz\u0131l Mah.)"], "location_url": null},
{"location_hash_id": ["5c4dee00-e0cc-4caf-8c85-8d03c6b94224"], "location_name": ["Sultanbeyli (Yavuz Selim Mah.)"], "location_url": null},
{"location_hash_id": ["cb0c4a8f-7f54-4aeb-88cb-258421f122a7"], "location_name": ["Sultangazi (Gazi Mah.)"], "location_url": null},
{"location_hash_id": ["b09640fb-fce3-4d15-bea1-099b4105abba"], "location_name": ["Sultangazi (Merkez)"], "location_url": null},
{"location_hash_id": ["2b0262f8-c6a8-4fb9-9083-0a99afa01d31"], "location_name": ["Sultanhamam"], "location_url": null},
{"location_hash_id": ["20b41fc6-ce73-41c6-b12e-87c1f148ae93"], "location_name": ["S\u00fctl\u00fcce"], "location_url": null},
{"location_hash_id": ["26580f76-0832-42ab-ac18-2c7603f0415c"], "location_name": ["\u015ea\u015fk\u0131nbakkal"], "location_url": null},
{"location_hash_id": ["5529e65c-66ca-4833-b1d0-33a66fb8e4db"], "location_name": ["\u015eehremini"], "location_url": null},
{"location_hash_id": ["14632161-148d-4802-89b0-9530aae92dc6"], "location_name": ["\u015eenesenevler"], "location_url": null},
{"location_hash_id": ["19bdba21-970d-4dfa-901c-92af3d0b8ef2"], "location_name": ["\u015eile"], "location_url": null},
{"location_hash_id": ["3d136b9e-4082-4e89-aea1-5ba478a0002c"], "location_name": ["\u015eirinevler"], "location_url": null},
{"location_hash_id": ["ae60bb2a-b83e-4bbf-b421-b4a138bb868a"], "location_name": ["\u015ei\u015fhane"], "location_url": null},
{"location_hash_id": ["418b7c5f-dad2-4ce8-9c5f-238d72580780"], "location_name": ["\u015ei\u015fli (Bomonti)"], "location_url": null},
{"location_hash_id": ["3a62e435-dfcd-485f-a08a-da3512bf6554"], "location_name": ["\u015ei\u015fli (Halide Edip Ad\u0131var Mah.)"], "location_url": null},
{"location_hash_id": ["2730219b-8fe2-47f6-9df6-259c35027ed3"], "location_name": ["\u015ei\u015fli (H\u00fcrriyet Mah.)"], "location_url": null},
{"location_hash_id": ["02fecf06-19f4-4c20-a9e3-3358901eb3b7"], "location_name": ["\u015ei\u015fli (Merkez)"], "location_url": null},
{"location_hash_id": ["926d4393-ef1a-4ad7-b426-9bbe0e5fa870"], "location_name": ["Tahtakale"], "location_url": null},
{"location_hash_id": ["d9db6f1b-51f2-43d9-b6d2-cc300fbbb9bb"], "location_name": ["Taksim"], "location_url": null},
{"location_hash_id": ["a83619d8-8f62-4b69-838a-6b520436df4f"], "location_name": ["Tarabya"], "location_url": null},
{"location_hash_id": ["0e2a20ef-cbac-4e99-ac75-25eb6feb8c12"], "location_name": ["Tarlaba\u015f\u0131"], "location_url": null},
{"location_hash_id": ["610537c7-1d50-4a91-ae3e-62b811d80919"], "location_name": ["Ta\u015foluk Mah. (Arnavutk\u00f6y \u0130l\u00e7esi)"], "location_url": null},
{"location_hash_id": ["3d6c0fb9-b357-476f-9956-0f082410609f"], "location_name": ["Tepeba\u015f\u0131"], "location_url": null},
{"location_hash_id": ["96b0c701-7b81-4be1-8af2-e15ff7208934"], "location_name": ["Tepek\u00f6y"], "location_url": null},
{"location_hash_id": ["6a06e72a-0039-4536-be5c-80a0f00888cc"], "location_name": ["Te\u015fvikiye"], "location_url": null},
{"location_hash_id": ["e929f729-df21-4366-995b-113c6d815557"], "location_name": ["Tophane"], "location_url": null},
{"location_hash_id": ["bf642919-9826-47a2-adc8-ccc2ae0b80be"], "location_name": ["Topkap\u0131"], "location_url": null},
{"location_hash_id": ["964fdb36-ef15-4589-aa58-402681e06193"], "location_name": ["Tuzla (Akf\u0131rat Mah.)"], "location_url": null},
{"location_hash_id": ["3ee75562-195d-43c4-9c20-b0bfac0e524e"], "location_name": ["Tuzla (Ayd\u0131nl\u0131 Mah.)"], "location_url": null},
{"location_hash_id": ["35200cea-b7fb-4098-abaa-d9a78cbb3624"], "location_name": ["Tuzla (\u0130\u00e7meler Mah.)"], "location_url": null},
{"location_hash_id": ["3018a23f-ad32-4b3a-8489-6426c2b63eb6"], "location_name": ["Tuzla (\u0130stasyon Mah.)"], "location_url": null},
{"location_hash_id": ["5f27a566-ad43-40d3-beaa-a73037861a16"], "location_name": ["Tuzla (Merkez)"], "location_url": null},
{"location_hash_id": ["727b1185-c171-4079-ab50-02e7cafc54e0"], "location_name": ["Tuzla (Okan \u00dcniv.)"], "location_url": null},
{"location_hash_id": ["f7cda075-3d4d-4a3e-a591-e33c3a8a331a"], "location_name": ["Tuzla (Org. Sanayi)"], "location_url": null},
{"location_hash_id": ["93ecb35c-d4b6-4482-8f8b-37dbe5d24643"], "location_name": ["Tuzla (Orhanl\u0131 Mah.)"], "location_url": null},
{"location_hash_id": ["c6f181f4-a189-446a-8d9b-4477c2302671"], "location_name": ["Tuzla (Postane Mah.)"], "location_url": null},
{"location_hash_id": ["31a26efc-1c67-4136-aef3-abecb774726d"], "location_name": ["Tuzla (Sabanc\u0131 \u00dcniv.)"], "location_url": null},
{"location_hash_id": ["3109d013-6f03-4660-b795-7aef29b92d86"], "location_name": ["Tuzla (Tepe\u00f6ren Mah.)"], "location_url": null},
{"location_hash_id": ["3d33928b-30a0-4cea-a9d6-a4fc07c27717"], "location_name": ["T\u00fcccarba\u015f\u0131"], "location_url": null},
{"location_hash_id": ["bd8459fb-a786-4ab4-8c16-e1a2a3cdf4d2"], "location_name": ["Ulus"], "location_url": null},
{"location_hash_id": ["50d384e9-d774-4596-91c7-7da546de0db8"], "location_name": ["Unkapan\u0131"], "location_url": null},
{"location_hash_id": ["f40ccabf-9095-402b-bc15-64979dd03666"], "location_name": ["\u00dcmraniye (Arma\u011fanevler Mah.)"], "location_url": null},
{"location_hash_id": ["d672039d-2f55-41aa-a309-3cf30ab8894f"], "location_name": ["\u00dcmraniye (Atakent Mah.)"], "location_url": null},
{"location_hash_id": ["dd51150a-4ab5-49c2-bbcf-dae0b8aa236a"], "location_name": ["\u00dcmraniye (Atat\u00fcrk Mah.)"], "location_url": null},
{"location_hash_id": ["e4fa62e6-4b12-4273-ae49-b8d63f1151e7"], "location_name": ["\u00dcmraniye (\u00c7akmak Mah.)"], "location_url": null},
{"location_hash_id": ["68d86674-db32-4788-ba1b-a3d17a460a1c"], "location_name": ["\u00dcmraniye (\u00c7aml\u0131k Mah.)"], "location_url": null},
{"location_hash_id": ["3bf80bb8-e072-43c5-9d8e-6c41116d76f0"], "location_name": ["\u00dcmraniye (Dumlup\u0131nar Mah.)"], "location_url": null},
{"location_hash_id": ["6fb91526-3650-483e-9d9a-eb34ec4c1eab"], "location_name": ["\u00dcmraniye (Elmal\u0131kent Mah.)"], "location_url": null},
{"location_hash_id": ["e557a8e9-d8fd-49f4-bfaa-434995741dde"], "location_name": ["\u00dcmraniye (Esen\u015fehir Mah.)"], "location_url": null},
{"location_hash_id": ["7bd65b30-d41c-46ff-97ab-819a35758897"], "location_name": ["\u00dcmraniye (Ihlamurkuyu Mah.)"], "location_url": null},
{"location_hash_id": ["3df60bbf-5931-4472-9a6e-6ec1ffa00d80"], "location_name": ["\u00dcmraniye (\u0130nkilap Mah.)"], "location_url": null},
{"location_hash_id": ["52eabe9d-394f-46b7-9359-0883f1e7bd5b"], "location_name": ["\u00dcmraniye (\u0130stiklal Mah.)"], "location_url": null},
{"location_hash_id": ["a6c198c1-abbe-4ab3-9b7f-130743e8b175"], "location_name": ["\u00dcmraniye (M. Akif Mah.)"], "location_url": null},
{"location_hash_id": ["23a1e012-c637-462e-86ca-1fde4db20c74"], "location_name": ["\u00dcmraniye (Merkez)"], "location_url": null},
{"location_hash_id": ["8fa9db09-f11c-4c46-8108-999e674aebb1"], "location_name": ["\u00dcmraniye (Nam\u0131k Kemal Mah.)"], "location_url": null},
{"location_hash_id": ["dee94d57-89bd-4afe-a7d1-69be72272e19"], "location_name": ["\u00dcmraniye (Saray Mah.)"], "location_url": null},
{"location_hash_id": ["dc72c58f-cbf5-4309-bae8-10d1f1fe51ce"], "location_name": ["\u00dcmraniye (Site Mah.)"], "location_url": null},
{"location_hash_id": ["8e53175b-3ae4-4ce7-8a32-5ca705c0755f"], "location_name": ["\u00dcmraniye (\u015eerifali Mah.)"], "location_url": null},
{"location_hash_id": ["6d9546ea-65df-49df-b0ab-d9fa22b2685c"], "location_name": ["\u00dcmraniye (Tatl\u0131su Mah.)"], "location_url": null},
{"location_hash_id": ["f48627cb-49e9-4324-ad65-207fb3336b00"], "location_name": ["\u00dcmraniye (Tepe\u00fcst\u00fc Mah.)"], "location_url": null},
{"location_hash_id": ["2e55dae1-b552-44eb-bff4-080ebf29743b"], "location_name": ["\u00dcmraniye (Yamanevler Mah.)"], "location_url": null},
{"location_hash_id": ["86277509-7705-4265-ba65-9f242d83625b"], "location_name": ["\u00dcmraniye (Yavuzt\u00fcrk Mah.)"], "location_url": null},
{"location_hash_id": ["fdf24a9a-b52d-4e1f-b093-448ddbfad3ed"], "location_name": ["\u00dcnalan"], "location_url": null},
{"location_hash_id": ["0bee37b1-453c-4c1a-80bf-6171d2624b49"], "location_name": ["\u00dcsk\u00fcdar (A. Mahmud H\u00fcdayi Mah.)"], "location_url": null},
{"location_hash_id": ["87183054-f7e2-4858-a8de-e781ec12b40a"], "location_name": ["\u00dcsk\u00fcdar (Ahmet \u00c7elebi Mah.)"], "location_url": null},
{"location_hash_id": ["9552a469-84bd-43c5-9a06-d51424f4bc4b"], "location_name": ["\u00dcsk\u00fcdar (Ayazma Mah.)"], "location_url": null},
{"location_hash_id": ["97e868f3-26e7-4a7d-b483-c198496ec937"], "location_name": ["\u00dcsk\u00fcdar (Ba\u011flarba\u015f\u0131 Mah.)"], "location_url": null},
{"location_hash_id": ["d216d3e9-22c1-4967-aef5-f5916593a39f"], "location_name": ["\u00dcsk\u00fcdar (Burhaniye Mah.)"], "location_url": null},
{"location_hash_id": ["926ecf6f-f467-43b8-8bec-a21cac4c0ba4"], "location_name": ["\u00dcsk\u00fcdar (Emniyet Mah.)"], "location_url": null},
{"location_hash_id": ["69408499-c591-415c-a74d-277d984b62c6"], "location_name": ["\u00dcsk\u00fcdar (Ferah Mah.)"], "location_url": null},
{"location_hash_id": ["2fe35b03-9af4-48ee-b9aa-f079a94aee85"], "location_name": ["\u00dcsk\u00fcdar (F\u0131st\u0131ka\u011fac\u0131 Mah.)"], "location_url": null},
{"location_hash_id": ["733d730c-ef29-4095-b55d-be06677b811b"], "location_name": ["\u00dcsk\u00fcdar (G\u00fczeltepe Mah.)"], "location_url": null},
{"location_hash_id": ["eb8e9167-231d-400f-8e31-5535ac2278fc"], "location_name": ["\u00dcsk\u00fcdar (H. Hesna Hatun Mah.)"], "location_url": null},
{"location_hash_id": ["190a5094-2355-49de-9b9b-b9d900bc99ee"], "location_name": ["\u00dcsk\u00fcdar (\u0130cadiye Mah.)"], "location_url": null},
{"location_hash_id": ["3f61144f-3b5c-47db-9c82-92dfb6352517"], "location_name": ["\u00dcsk\u00fcdar (Kirazl\u0131tepe Mah.)"], "location_url": null},
{"location_hash_id": ["cc4d5701-31df-4cc3-b7dc-b3668368cba3"], "location_name": ["\u00dcsk\u00fcdar (Kuleli Mah.)"], "location_url": null},
{"location_hash_id": ["595d8367-64f3-444e-83b8-83c648f80081"], "location_name": ["\u00dcsk\u00fcdar (K\u00fcpl\u00fcce Mah.)"], "location_url": null},
{"location_hash_id": ["b2e1a7a7-90ad-4d70-9393-ce06865dbdfa"], "location_name": ["\u00dcsk\u00fcdar (Merkez)"], "location_url": null},
{"location_hash_id": ["8de5b5dc-d0d4-4f24-bf0e-a73705aab2ee"], "location_name": ["\u00dcsk\u00fcdar (Mimar Sinan Mah.)"], "location_url": null},
{"location_hash_id": ["b6c0dad6-839b-4d16-8764-a8d0a966a962"], "location_name": ["\u00dcsk\u00fcdar (Murat Reis Mah.)"], "location_url": null},
{"location_hash_id": ["bfbeeed5-dfb0-4a16-a1b8-98c749a69ae9"], "location_name": ["\u00dcsk\u00fcdar (Pazarba\u015f\u0131 Mah.)"], "location_url": null},
{"location_hash_id": ["7d989b43-6f01-4aad-85b8-5743b863d889"], "location_name": ["\u00dcsk\u00fcdar (Salacak)"], "location_url": null},
{"location_hash_id": ["08df2095-01ab-442b-af75-09198f5fd46c"], "location_name": ["\u00dcsk\u00fcdar (Selimiye)"], "location_url": null},
{"location_hash_id": ["b719cfba-adc5-42ef-9ed6-aa14a190b0f1"], "location_name": ["\u00dcsk\u00fcdar (Sultantepe Mah.)"], "location_url": null},
{"location_hash_id": ["15aba364-10fa-41dc-9596-9a269c57806a"], "location_name": ["\u00dcsk\u00fcdar (Toygar Hamza Mah.)"], "location_url": null},
{"location_hash_id": ["9af9c48c-26e1-490a-a59c-cf4c49cc676f"], "location_name": ["\u00dcsk\u00fcdar (Valide-i Atik Mah.)"], "location_url": null},
{"location_hash_id": ["12ba2be4-7d93-41c9-8956-93b704569031"], "location_name": ["Vefa"], "location_url": null},
{"location_hash_id": ["968ba6de-0a80-4b00-8e8e-0d70ff22938d"], "location_name": ["Yalova"], "location_url": null},
{"location_hash_id": ["b5d6238f-9a37-4e5d-a616-1c8599d4a7df"], "location_name": ["Yama\u00e7l\u0131"], "location_url": null},
{"location_hash_id": ["c0e028dc-cbe0-4161-a1fc-60564a20bf97"], "location_name": ["Yedikule"], "location_url": null},
{"location_hash_id": ["049f4485-1638-4649-96b5-d56a61c9e896"], "location_name": ["Yenibosna"], "location_url": null},
{"location_hash_id": ["ef1b91a0-28a3-473b-a24e-af5b9b3f0489"], "location_name": ["Yenibosna (Bas\u0131n Ekspres Yolu)"], "location_url": null},
{"location_hash_id": ["3decaf27-0d5d-4df7-9592-81d729b636e0"], "location_name": ["Yenibosna (\u00c7oban\u00e7e\u015fme)"], "location_url": null},
{"location_hash_id": ["52eb0c17-81dc-450a-bfc5-a7e8061ee7b9"], "location_name": ["Yenikap\u0131"], "location_url": null},
{"location_hash_id": ["9e9b43cc-1c50-4d71-9ee7-f55e5cb34919"], "location_name": ["Yenik\u00f6y"], "location_url": null},
{"location_hash_id": ["bde84b54-979a-4d54-8952-7a4d6f77f6f2"], "location_name": ["Yeni\u015fehir (Soyak)"], "location_url": null},
{"location_hash_id": ["26abe267-2633-4afe-97f1-0d4e52f5ace5"], "location_name": ["Ye\u015filk\u00f6y"], "location_url": null},
{"location_hash_id": ["58179e7b-5a7e-4259-a47b-a9495b15aab9"], "location_name": ["Ye\u015filk\u00f6y (Atat\u00fcrk Havaliman\u0131)"], "location_url": null},
{"location_hash_id": ["8684148d-e67e-49a2-8664-e9c9ec5e45f7"], "location_name": ["Ye\u015filk\u00f6y (\u0130DTM)"], "location_url": null},
{"location_hash_id": ["f290ec13-a7ec-4c89-a872-22c8ebe19eb0"], "location_name": ["Ye\u015filp\u0131nar"], "location_url": null},
{"location_hash_id": ["8811f3c0-13b5-49e7-a349-2152110d5c9f"], "location_name": ["Ye\u015filyurt"], "location_url": null},
{"location_hash_id": ["659ce507-7c88-47b0-8b3b-58b983b3de8f"], "location_name": ["Yukar\u0131 Dudullu"], "location_url": null},
{"location_hash_id": ["073d45d7-ec71-477e-91d8-f4143b6e761c"], "location_name": ["Zekeriyak\u00f6y"], "location_url": null},
{"location_hash_id": ["0722cfd2-e800-4463-9d94-0a7f2570ba8b"], "location_name": ["Zeytinburnu (Kazl\u0131\u00e7e\u015fme Mah.)"], "location_url": null},
{"location_hash_id": ["ac694b5d-40c6-468d-b265-82bf2c8fa510"], "location_name": ["Zeytinburnu (Merkez)"], "location_url": null},
{"location_hash_id": ["a5a721af-188a-4645-b423-0254a8ab5aa9"], "location_name": ["Zeytinburnu (Merkezefendi Mah.)"], "location_url": null},
{"location_hash_id": ["6fdb8a13-c177-4213-a0e6-0affdfae7185"], "location_name": ["Zeytinburnu (Terc. Mah.)"], "location_url": null},
{"location_hash_id": ["86ee5cc9-5c02-4ada-a241-f305bacbdbf5"], "location_name": ["Zeytinburnu (Veliefendi Mah.)"], "location_url": null},
{"location_hash_id": ["32634817-7c09-4d3e-a4ac-749988a7c47c"], "location_name": ["Zincirlikuyu"], "location_url": null},
{"location_hash_id": ["683bffe1-a7b5-40be-b5f7-44dce9e363b1"], "location_name": ["Ziverbey"], "location_url": null},
{"location_hash_id": ["dd6da4f5-04f5-493f-b3bd-faa37a2acb47"], "location_name": ["Z\u00fcmr\u00fctpa\u015fa"], "location_url": null},
{"location_hash_id": [""], "location_name": ["<<< Hepsi >>>"], "location_url": null},
{"location_hash_id": ["aa04b6ac-2344-4409-8e0b-4dd40de6f460"], "location_name": ["Online Kredi Kart\u0131"], "location_url": null},
{"location_hash_id": ["b93e2cf9-5d58-494e-b69a-3a7882f4e747"], "location_name": ["Nakit"], "location_url": null},
{"location_hash_id": ["5e51355e-f201-49e2-bed6-fd614cd7f146"], "location_name": ["Kredi Kart\u0131"], "location_url": null},
{"location_hash_id": ["216cbea7-6f19-4ec4-954e-b6330b91729c"], "location_name": ["fastPay"], "location_url": null},
{"location_hash_id": ["b7d2efcf-4fee-481d-a63c-85930708d44a"], "location_name": ["Ticket Restaurant Yemek Kart\u0131"], "location_url": null},
{"location_hash_id": ["4019bebb-95f0-4f55-8ab4-97cf2b0c48f3"], "location_name": ["Ticket Restaurant Yemek \u00c7eki"], "location_url": null},
{"location_hash_id": ["06b7d115-b1d8-4dad-83e4-30c453ba2cf5"], "location_name": ["PassCard Restoran Yemek Kart\u0131"], "location_url": null},
{"location_hash_id": ["41764396-ec46-4977-ab24-9110f44e0241"], "location_name": ["Sodexo Restoran Yemek \u00c7eki"], "location_url": null},
{"location_hash_id": ["719e747c-4615-45b2-9118-faebbd81de2e"], "location_name": ["Multinet"], "location_url": null},
{"location_hash_id": ["4a0b6116-adde-4ea8-aae2-1f675f0b1155"], "location_name": ["SetCard"], "location_url": null},
{"location_hash_id": ["122eccef-d82d-42e4-9cbc-cec57a928866"], "location_name": ["Winwin Yemek \u00c7eki"], "location_url": null},
{"location_hash_id": ["b6fc4975-e103-45a0-b929-15b4117ce47b"], "location_name": ["\u00c7ek"], "location_url": null},
{"location_hash_id": ["32275f1c-9a6d-4a8a-a890-377f9208b841"], "location_name": ["Winwin POS"], "location_url": null}]