[{"working_hours": [], "service_rating": [], "restaurant_link": [], "flavour_rating": [], "paymentmethods": [], "speed_rating": [], "local_id": [], "is_open": [], "restaurant_category_id": [], "restaurant_name": [], "minprice": []},
{"working_hours": ["11:00-23:00"], "service_rating": ["-1"], "restaurant_link": ["http://istanbul.yemeksepeti.com/TR/Restoran/Komagene-Etsiz-Cig-Kofte_-Kartal-(Topselvi-Mahn)/87a4dfc2-1c2a-4763-8e00-10c994e6921c/TR_ISTANBUL/m.ys"], "flavour_rating": ["-1"], "paymentmethods": ["fastPay^Nakit^Online Kredi Kart\u0131^SetCard"], "speed_rating": ["-1"], "local_id": ["2172957"], "is_open": ["True"], "restaurant_category_id": ["87a4dfc2-1c2a-4763-8e00-10c994e6921c"], "restaurant_name": ["Komagene Etsiz \u00c7i\u011f K\u00f6fte, Kartal (Topselvi Mah.)"], "minprice": ["<span style='font-weight:bold; letter-spacing:1px;'>-1</span> "]},
{"working_hours": ["11:00-21:00"], "service_rating": ["-1"], "restaurant_link": ["http://istanbul.yemeksepeti.com/TR/Restoran/Pideci_-Esentepe-(Astoria)/3c7ceeb9-cb99-412d-a643-59b7f3bac68c/TR_ISTANBUL/m.ys"], "flavour_rating": ["-1"], "paymentmethods": ["Kredi Kart\u0131^Multinet^Nakit^PassCard Restoran Yemek Kart\u0131^SetCard^Sodexo Restoran Yemek \u00c7eki^Ticket Restaurant Yemek \u00c7eki^Ticket Restaurant Yemek Kart\u0131"], "speed_rating": ["-1"], "local_id": ["2170636"], "is_open": ["True"], "restaurant_category_id": ["3c7ceeb9-cb99-412d-a643-59b7f3bac68c"], "restaurant_name": ["Pideci, Esentepe (Astoria)"], "minprice": ["<span style='font-weight:bold; letter-spacing:1px;'>-1</span> "]},
{"working_hours": ["11:00-23:00"], "service_rating": ["-1"], "restaurant_link": ["http://istanbul.yemeksepeti.com/TR/Restoran/My-Friends-Bistro_-Atasehir-(Bati)/6eb21ed2-34dd-4ed9-8a7c-33d1c620a25a/TR_ISTANBUL/m.ys"], "flavour_rating": ["-1"], "paymentmethods": ["fastPay^Kredi Kart\u0131^Nakit^Online Kredi Kart\u0131"], "speed_rating": ["-1"], "local_id": ["2172953"], "is_open": ["True"], "restaurant_category_id": ["6eb21ed2-34dd-4ed9-8a7c-33d1c620a25a"], "restaurant_name": ["My Friend's Bistro, Ata\u015fehir (Bat\u0131)"], "minprice": ["<span style='font-weight:bold; letter-spacing:1px;'>-1</span> "]},
{"working_hours": ["10:00-01:30"], "service_rating": ["-1"], "restaurant_link": ["http://istanbul.yemeksepeti.com/TR/Restoran/Arsamiea-Etsiz-Cig-Kofte_-Icerenkoy-(Karsli-Ahmet-Cadn)/1a78e638-c3ce-437e-a314-df4a6cdb5977/TR_ISTANBUL/m.ys"], "flavour_rating": ["-1"], "paymentmethods": ["fastPay^Nakit^Online Kredi Kart\u0131"], "speed_rating": ["-1"], "local_id": ["2172954"], "is_open": ["True"], "restaurant_category_id": ["1a78e638-c3ce-437e-a314-df4a6cdb5977"], "restaurant_name": ["Arsamiea Etsiz \u00c7i\u011f K\u00f6fte, \u0130\u00e7erenk\u00f6y (Karsl\u0131 Ahmet Cad.)"], "minprice": ["<span style='font-weight:bold; letter-spacing:1px;'>-1</span> "]},
{"working_hours": ["11:30-02:00"], "service_rating": ["-1"], "restaurant_link": ["http://istanbul.yemeksepeti.com/TR/Restoran/Pilavcizadem_-Ortakoy/42098ffa-406f-4ed4-9b24-2e776b40531c/TR_ISTANBUL/m.ys"], "flavour_rating": ["-1"], "paymentmethods": ["Kredi Kart\u0131^Nakit"], "speed_rating": ["-1"], "local_id": ["2172955"], "is_open": ["True"], "restaurant_category_id": ["42098ffa-406f-4ed4-9b24-2e776b40531c"], "restaurant_name": ["Pilavc\u0131zade'm, Ortak\u00f6y"], "minprice": ["<span style='font-weight:bold; letter-spacing:1px;'>-1</span> "]},
{"working_hours": ["08:00-19:00"], "service_rating": ["-1"], "restaurant_link": ["http://istanbul.yemeksepeti.com/TR/Restoran/Karafirin_-Kurtkoy-(Via--Port)/42013ad8-4b56-4a04-b4d0-2bb884d0eebb/TR_ISTANBUL/m.ys"], "flavour_rating": ["-1"], "paymentmethods": ["Kredi Kart\u0131^Multinet^Nakit^PassCard Restoran Yemek Kart\u0131^SetCard^Sodexo Restoran Yemek \u00c7eki^Ticket Restaurant Yemek \u00c7eki^Ticket Restaurant Yemek Kart\u0131"], "speed_rating": ["-1"], "local_id": ["2172956"], "is_open": ["False"], "restaurant_category_id": ["42013ad8-4b56-4a04-b4d0-2bb884d0eebb"], "restaurant_name": ["Karaf\u0131r\u0131n, Kurtk\u00f6y (Via / Port)"], "minprice": ["<span style='font-weight:bold; letter-spacing:1px;'>-1</span> "]},
{"working_hours": ["10:30-23:00"], "service_rating": ["-1"], "restaurant_link": ["http://istanbul.yemeksepeti.com/TR/Restoran/Subway_-Etiler/d7346ca0-6980-4cba-96a5-28dc6d03f188/TR_ISTANBUL/m.ys"], "flavour_rating": ["-1"], "paymentmethods": ["fastPay^Kredi Kart\u0131^Nakit^Online Kredi Kart\u0131"], "speed_rating": ["-1"], "local_id": ["2163007"], "is_open": ["True"], "restaurant_category_id": ["d7346ca0-6980-4cba-96a5-28dc6d03f188"], "restaurant_name": ["Subway, Etiler"], "minprice": ["<span style='font-weight:bold; letter-spacing:1px;'>-1</span> "]},
{"working_hours": ["12:00-23:00"], "service_rating": ["-1"], "restaurant_link": ["http://istanbul.yemeksepeti.com/TR/Restoran/Yasar-Ustanin-Dondurmasi_-Erenkoy/01ae50eb-4f7f-4cc3-8061-852e5b6c7d52/TR_ISTANBUL/m.ys"], "flavour_rating": ["-1"], "paymentmethods": ["Nakit"], "speed_rating": ["-1"], "local_id": ["1817133"], "is_open": ["True"], "restaurant_category_id": ["01ae50eb-4f7f-4cc3-8061-852e5b6c7d52"], "restaurant_name": ["Ya\u015far Usta'n\u0131n Dondurmas\u0131, Erenk\u00f6y"], "minprice": ["<span style='font-weight:bold; letter-spacing:1px;'>-1</span> "]},
{"working_hours": ["13:00-23:30"], "service_rating": ["-1"], "restaurant_link": ["http://istanbul.yemeksepeti.com/TR/Restoran/Cig-Kofteci-Sait_-Maltepe-(Baglarbasi-Mahn)/5bd351ef-7ad4-4980-b0b5-ee4389ad3fe8/TR_ISTANBUL/m.ys"], "flavour_rating": ["-1"], "paymentmethods": ["fastPay^Nakit^Online Kredi Kart\u0131"], "speed_rating": ["-1"], "local_id": ["2170639"], "is_open": ["True"], "restaurant_category_id": ["5bd351ef-7ad4-4980-b0b5-ee4389ad3fe8"], "restaurant_name": ["\u00c7i\u011f K\u00f6fteci Sait, Maltepe (Ba\u011flarba\u015f\u0131 Mah.)"], "minprice": ["<span style='font-weight:bold; letter-spacing:1px;'>-1</span> "]},
{"working_hours": ["11:30-01:00"], "service_rating": ["-1"], "restaurant_link": ["http://istanbul.yemeksepeti.com/TR/Restoran/Arada-Bir-Tantuni_-Sariyer/dad78df8-d588-4971-9bbf-f821265b5fd8/TR_ISTANBUL/m.ys"], "flavour_rating": ["-1"], "paymentmethods": ["fastPay^Kredi Kart\u0131^Nakit^Online Kredi Kart\u0131"], "speed_rating": ["-1"], "local_id": ["2171692"], "is_open": ["True"], "restaurant_category_id": ["dad78df8-d588-4971-9bbf-f821265b5fd8"], "restaurant_name": ["Arada Bir Tantuni, Sar\u0131yer"], "minprice": ["<span style='font-weight:bold; letter-spacing:1px;'>-1</span> "]},
{"working_hours": ["11:20-21:50"], "service_rating": ["-1"], "restaurant_link": ["http://istanbul.yemeksepeti.com/TR/Restoran/Sultanahmet-Koftecisi_-Umraniye-(Carrefour)/848f744b-e344-47c1-a4b9-064c816f576f/TR_ISTANBUL/m.ys"], "flavour_rating": ["-1"], "paymentmethods": ["Kredi Kart\u0131^Multinet^Nakit^PassCard Restoran Yemek Kart\u0131^SetCard^Sodexo Restoran Yemek \u00c7eki^Ticket Restaurant Yemek \u00c7eki^Ticket Restaurant Yemek Kart\u0131"], "speed_rating": ["-1"], "local_id": ["2172192"], "is_open": ["True"], "restaurant_category_id": ["848f744b-e344-47c1-a4b9-064c816f576f"], "restaurant_name": ["Sultanahmet K\u00f6ftecisi, \u00dcmraniye (Carrefour)"], "minprice": ["<span style='font-weight:bold; letter-spacing:1px;'>-1</span> "]},
{"working_hours": ["11:15-21:45"], "service_rating": ["-1"], "restaurant_link": ["http://istanbul.yemeksepeti.com/TR/Restoran/Rumi-Etli-Ekmek---Tantuni_-Umraniye-(Inkilap-Mahn)/39aacfbd-2fa0-40ce-82bf-29190d7e9d92/TR_ISTANBUL/m.ys"], "flavour_rating": ["-1"], "paymentmethods": ["Kredi Kart\u0131^Multinet^Nakit^PassCard Restoran Yemek Kart\u0131^Sodexo Restoran Yemek \u00c7eki^Ticket Restaurant Yemek \u00c7eki^Ticket Restaurant Yemek Kart\u0131"], "speed_rating": ["-1"], "local_id": ["2171925"], "is_open": ["True"], "restaurant_category_id": ["39aacfbd-2fa0-40ce-82bf-29190d7e9d92"], "restaurant_name": ["Rumi Etli Ekmek - Tantuni, \u00dcmraniye (\u0130nk\u0131lap Mah.)"], "minprice": ["<span style='font-weight:bold; letter-spacing:1px;'>-1</span> "]},
{"working_hours": ["10:00-22:00"], "service_rating": ["-1"], "restaurant_link": ["http://istanbul.yemeksepeti.com/TR/Restoran/Citir-Usta_-Yenibosna-(Starcity)/d084ace1-74ee-4f6a-92db-f745208ae254/TR_ISTANBUL/m.ys"], "flavour_rating": ["-1"], "paymentmethods": ["Kredi Kart\u0131^Multinet^Nakit^PassCard Restoran Yemek Kart\u0131^SetCard^Sodexo Restoran Yemek \u00c7eki^Ticket Restaurant Yemek \u00c7eki^Ticket Restaurant Yemek Kart\u0131"], "speed_rating": ["-1"], "local_id": ["2171924"], "is_open": ["True"], "restaurant_category_id": ["d084ace1-74ee-4f6a-92db-f745208ae254"], "restaurant_name": ["\u00c7\u0131t\u0131r Usta, Yenibosna (Starcity)"], "minprice": ["<span style='font-weight:bold; letter-spacing:1px;'>-1</span> "]},
{"working_hours": ["24 Saat A\u00e7\u0131k"], "service_rating": ["-1"], "restaurant_link": ["http://istanbul.yemeksepeti.com/TR/Restoran/Etiler-Marmaris_-Bakirkoy/7e9f84c6-0502-44db-a2d6-eee8313aa2b4/TR_ISTANBUL/m.ys"], "flavour_rating": ["-1"], "paymentmethods": ["fastPay^Kredi Kart\u0131^Nakit^Online Kredi Kart\u0131"], "speed_rating": ["-1"], "local_id": ["2171923"], "is_open": ["True"], "restaurant_category_id": ["7e9f84c6-0502-44db-a2d6-eee8313aa2b4"], "restaurant_name": ["Etiler Marmaris, Bak\u0131rk\u00f6y"], "minprice": ["<span style='font-weight:bold; letter-spacing:1px;'>-1</span> "]},
{"working_hours": ["08:30-21:00"], "service_rating": ["-1"], "restaurant_link": ["http://istanbul.yemeksepeti.com/TR/Restoran/Basak-Doner-ve-Lahmacun_-Kozyatagi/eb128073-b195-4ca8-af96-8c23a71eeeb4/TR_ISTANBUL/m.ys"], "flavour_rating": ["-1"], "paymentmethods": ["fastPay^Kredi Kart\u0131^Nakit^Online Kredi Kart\u0131"], "speed_rating": ["-1"], "local_id": ["2171562"], "is_open": ["True"], "restaurant_category_id": ["eb128073-b195-4ca8-af96-8c23a71eeeb4"], "restaurant_name": ["Ba\u015fak D\u00f6ner & Lahmacun, Kozyata\u011f\u0131"], "minprice": ["<span style='font-weight:bold; letter-spacing:1px;'>-1</span> "]},
{"working_hours": ["07:30-20:45"], "service_rating": ["-1"], "restaurant_link": ["http://istanbul.yemeksepeti.com/TR/Restoran/InK-Doner_-Okmeydani-(Perpa)/38072d41-39a5-4c1b-b813-a06d9e8badcb/TR_ISTANBUL/m.ys"], "flavour_rating": ["-1"], "paymentmethods": ["fastPay^Kredi Kart\u0131^Multinet^Nakit^Online Kredi Kart\u0131^SetCard^Sodexo Restoran Yemek \u00c7eki^Ticket Restaurant Yemek \u00c7eki"], "speed_rating": ["-1"], "local_id": ["2171693"], "is_open": ["True"], "restaurant_category_id": ["38072d41-39a5-4c1b-b813-a06d9e8badcb"], "restaurant_name": ["\u0130.K D\u00f6ner, Okmeydan\u0131 (Perpa)"], "minprice": ["<span style='font-weight:bold; letter-spacing:1px;'>-1</span> "]},
{"working_hours": ["09:00-20:30"], "service_rating": ["-1"], "restaurant_link": ["http://istanbul.yemeksepeti.com/TR/Restoran/Kosem-Cafe_-Pangalti/4de88d63-c666-482d-a9d9-3e6ae0a462e5/TR_ISTANBUL/m.ys"], "flavour_rating": ["-1"], "paymentmethods": ["fastPay^Kredi Kart\u0131^Nakit^Online Kredi Kart\u0131"], "speed_rating": ["-1"], "local_id": ["2164314"], "is_open": ["True"], "restaurant_category_id": ["4de88d63-c666-482d-a9d9-3e6ae0a462e5"], "restaurant_name": ["K\u00f6\u015fem Cafe, Pangalt\u0131"], "minprice": ["<span style='font-weight:bold; letter-spacing:1px;'>-1</span> "]},
{"working_hours": ["11:00-03:00"], "service_rating": ["-1"], "restaurant_link": ["http://istanbul.yemeksepeti.com/TR/Restoran/Pizza-Bulls_-Sarigazi/869613f4-fdc6-49e4-afb7-8122ed680890/TR_ISTANBUL/m.ys"], "flavour_rating": ["-1"], "paymentmethods": ["fastPay^Kredi Kart\u0131^Multinet^Nakit^Online Kredi Kart\u0131^PassCard Restoran Yemek Kart\u0131^Sodexo Restoran Yemek \u00c7eki^Ticket Restaurant Yemek \u00c7eki^Ticket Restaurant Yemek Kart\u0131"], "speed_rating": ["-1"], "local_id": ["2170635"], "is_open": ["True"], "restaurant_category_id": ["869613f4-fdc6-49e4-afb7-8122ed680890"], "restaurant_name": ["Pizza Bulls, Sar\u0131gazi"], "minprice": ["<span style='font-weight:bold; letter-spacing:1px;'>-1</span> "]},
{"working_hours": ["11:00-22:00"], "service_rating": ["8"], "restaurant_link": ["http://istanbul.yemeksepeti.com/TR/Restoran/Burger-King_-Cengelkoy-(Nato-Yolu)/bc537448-0b97-4c48-a83f-ddb09b1fb611/TR_ISTANBUL/m.ys"], "flavour_rating": ["10"], "paymentmethods": ["Kredi Kart\u0131^Multinet^Nakit^PassCard Restoran Yemek Kart\u0131^SetCard^Sodexo Restoran Yemek \u00c7eki^Ticket Restaurant Yemek \u00c7eki^Ticket Restaurant Yemek Kart\u0131^Winwin Yemek \u00c7eki"], "speed_rating": ["9"], "local_id": ["2171017"], "is_open": ["True"], "restaurant_category_id": ["bc537448-0b97-4c48-a83f-ddb09b1fb611"], "restaurant_name": ["Burger King, \u00c7engelk\u00f6y (Nato Yolu)"], "minprice": ["<span style='font-weight:bold; letter-spacing:1px;'>-1</span> "]},
{"working_hours": ["11:00-23:00"], "service_rating": ["-1"], "restaurant_link": ["http://istanbul.yemeksepeti.com/TR/Restoran/Pizza-Venezia_-Kurtkoy-(Yenisehir-Mahn)/f1bfbe13-6ac2-42cd-addf-f9fe9dc54ba9/TR_ISTANBUL/m.ys"], "flavour_rating": ["-1"], "paymentmethods": ["fastPay^Kredi Kart\u0131^Nakit^Online Kredi Kart\u0131"], "speed_rating": ["-1"], "local_id": ["2170638"], "is_open": ["True"], "restaurant_category_id": ["f1bfbe13-6ac2-42cd-addf-f9fe9dc54ba9"], "restaurant_name": ["Pizza Venezia, Kurtk\u00f6y (Yeni\u015fehir Mah.)"], "minprice": ["<span style='font-weight:bold; letter-spacing:1px;'>-1</span> "]},
{"working_hours": ["07:00-23:59"], "service_rating": ["-1"], "restaurant_link": ["http://istanbul.yemeksepeti.com/TR/Restoran/Pasa-Kofte-ve-Durum_-Fatih-(Cerrahpasa)/d3a2a785-5a6c-49a9-a4ee-5c679cc62364/TR_ISTANBUL/m.ys"], "flavour_rating": ["-1"], "paymentmethods": ["Kredi Kart\u0131^Nakit^PassCard Restoran Yemek Kart\u0131^SetCard^Sodexo Restoran Yemek \u00c7eki^Ticket Restaurant Yemek \u00c7eki^Ticket Restaurant Yemek Kart\u0131"], "speed_rating": ["-1"], "local_id": ["2170364"], "is_open": ["True"], "restaurant_category_id": ["d3a2a785-5a6c-49a9-a4ee-5c679cc62364"], "restaurant_name": ["Pa\u015fa K\u00f6fte & D\u00fcr\u00fcm, Fatih (Cerrahpa\u015fa)"], "minprice": ["<span style='font-weight:bold; letter-spacing:1px;'>-1</span> "]},
{"working_hours": ["11:30-21:00"], "service_rating": ["-1"], "restaurant_link": ["http://istanbul.yemeksepeti.com/TR/Restoran/Usta-Eller-Kebap-ve-Lahmacun_-Merter/2008e4b5-bfd2-4663-88ab-6d859931ce4d/TR_ISTANBUL/m.ys"], "flavour_rating": ["-1"], "paymentmethods": ["fastPay^Kredi Kart\u0131^Multinet^Nakit^Online Kredi Kart\u0131^PassCard Restoran Yemek Kart\u0131^SetCard^Sodexo Restoran Yemek \u00c7eki^Ticket Restaurant Yemek \u00c7eki^Ticket Restaurant Yemek Kart\u0131"], "speed_rating": ["-1"], "local_id": ["2164006"], "is_open": ["True"], "restaurant_category_id": ["2008e4b5-bfd2-4663-88ab-6d859931ce4d"], "restaurant_name": ["Usta Eller Kebap & Lahmacun, Merter"], "minprice": ["<span style='font-weight:bold; letter-spacing:1px;'>-1</span> "]},
{"working_hours": ["11:00-23:59"], "service_rating": ["10"], "restaurant_link": ["http://istanbul.yemeksepeti.com/TR/Restoran/Etibeyaz_-Capa/bbf8e356-0c91-4334-ad75-fc78f9ec13de/TR_ISTANBUL/m.ys"], "flavour_rating": ["9"], "paymentmethods": ["fastPay^Kredi Kart\u0131^Nakit^Online Kredi Kart\u0131"], "speed_rating": ["10"], "local_id": ["2169522"], "is_open": ["True"], "restaurant_category_id": ["bbf8e356-0c91-4334-ad75-fc78f9ec13de"], "restaurant_name": ["Etibeyaz, \u00c7apa"], "minprice": ["<span style='font-weight:bold; letter-spacing:1px;'>-1</span> "]},
{"working_hours": ["11:00-22:00"], "service_rating": ["5"], "restaurant_link": ["http://istanbul.yemeksepeti.com/TR/Restoran/Burger-King_-Yenisahra/87291411-eb16-4d56-b274-35c244409943/TR_ISTANBUL/m.ys"], "flavour_rating": ["5"], "paymentmethods": ["Kredi Kart\u0131^Multinet^Nakit^PassCard Restoran Yemek Kart\u0131^SetCard^Sodexo Restoran Yemek \u00c7eki^Ticket Restaurant Yemek \u00c7eki^Ticket Restaurant Yemek Kart\u0131^Winwin Yemek \u00c7eki"], "speed_rating": ["5"], "local_id": ["2169816"], "is_open": ["True"], "restaurant_category_id": ["87291411-eb16-4d56-b274-35c244409943"], "restaurant_name": ["Burger King, Yenisahra"], "minprice": ["<span style='font-weight:bold; letter-spacing:1px;'>-1</span> "]},
{"working_hours": ["11:30-03:00"], "service_rating": ["-1"], "restaurant_link": ["http://istanbul.yemeksepeti.com/TR/Restoran/Ottoman-Pizza_-Kayisdagi-(Inonu-Mahn)/1954ea9c-9e97-4a7e-a1b3-cfa22290d76b/TR_ISTANBUL/m.ys"], "flavour_rating": ["-1"], "paymentmethods": ["fastPay^Kredi Kart\u0131^Nakit^Online Kredi Kart\u0131^Sodexo Restoran Yemek \u00c7eki^Ticket Restaurant Yemek \u00c7eki"], "speed_rating": ["-1"], "local_id": ["2162353"], "is_open": ["True"], "restaurant_category_id": ["1954ea9c-9e97-4a7e-a1b3-cfa22290d76b"], "restaurant_name": ["Ottoman Pizza, Kay\u0131\u015fda\u011f\u0131 (\u0130n\u00f6n\u00fc Mah.)"], "minprice": ["<span style='font-weight:bold; letter-spacing:1px;'>-1</span> "]},
{"working_hours": ["11:00-22:00"], "service_rating": ["-1"], "restaurant_link": ["http://istanbul.yemeksepeti.com/TR/Restoran/Apollo-Patisserie-ve-Cafe_-Mecidiyekoy/2ab1e43f-44bf-4c73-91b7-bfd3fef03c3f/TR_ISTANBUL/m.ys"], "flavour_rating": ["-1"], "paymentmethods": ["fastPay^Kredi Kart\u0131^Multinet^Nakit^Online Kredi Kart\u0131^PassCard Restoran Yemek Kart\u0131^SetCard^Ticket Restaurant Yemek \u00c7eki^Ticket Restaurant Yemek Kart\u0131"], "speed_rating": ["-1"], "local_id": ["2169200"], "is_open": ["True"], "restaurant_category_id": ["2ab1e43f-44bf-4c73-91b7-bfd3fef03c3f"], "restaurant_name": ["Apollo Patisserie & Cafe, Mecidiyek\u00f6y"], "minprice": ["<span style='font-weight:bold; letter-spacing:1px;'>-1</span> "]},
{"working_hours": ["11:00-02:00"], "service_rating": ["9"], "restaurant_link": ["http://istanbul.yemeksepeti.com/TR/Restoran/Kanatci-Al-Der_-Bahcelievler-(Siyavuspasa)/3dcc2fa1-c47e-461d-be84-1b04a4b57a0a/TR_ISTANBUL/m.ys"], "flavour_rating": ["10"], "paymentmethods": ["fastPay^Kredi Kart\u0131^Nakit^Online Kredi Kart\u0131"], "speed_rating": ["10"], "local_id": ["2164007"], "is_open": ["True"], "restaurant_category_id": ["3dcc2fa1-c47e-461d-be84-1b04a4b57a0a"], "restaurant_name": ["Kanat\u00e7\u0131 Al-Der, Bah\u00e7elievler (Siyavu\u015fpa\u015fa)"], "minprice": ["<span style='font-weight:bold; letter-spacing:1px;'>-1</span> "]},
{"working_hours": ["12:00-23:00"], "service_rating": ["-1"], "restaurant_link": ["http://istanbul.yemeksepeti.com/TR/Restoran/Komagene-Etsiz-Cig-Kofte_-Merdivenkoy/54ce11d1-6d22-429e-bd9f-108caa90fcc7/TR_ISTANBUL/m.ys"], "flavour_rating": ["-1"], "paymentmethods": ["fastPay^Nakit^Online Kredi Kart\u0131"], "speed_rating": ["-1"], "local_id": ["2169523"], "is_open": ["True"], "restaurant_category_id": ["54ce11d1-6d22-429e-bd9f-108caa90fcc7"], "restaurant_name": ["Komagene Etsiz \u00c7i\u011f K\u00f6fte, Merdivenk\u00f6y"], "minprice": ["<span style='font-weight:bold; letter-spacing:1px;'>-1</span> "]},
{"working_hours": ["12:00-23:59"], "service_rating": ["-1"], "restaurant_link": ["http://istanbul.yemeksepeti.com/TR/Restoran/Komagene-Etsiz-Cig-Kofte_-Kartal-(Yukari-Mahn)/5138a666-835a-42e1-ac91-dfee81ecb3c1/TR_ISTANBUL/m.ys"], "flavour_rating": ["-1"], "paymentmethods": ["fastPay^Nakit^Online Kredi Kart\u0131"], "speed_rating": ["-1"], "local_id": ["2169524"], "is_open": ["True"], "restaurant_category_id": ["5138a666-835a-42e1-ac91-dfee81ecb3c1"], "restaurant_name": ["Komagene Etsiz \u00c7i\u011f K\u00f6fte, Kartal (Yukar\u0131 Mah.)"], "minprice": ["<span style='font-weight:bold; letter-spacing:1px;'>-1</span> "]},
{"working_hours": ["11:30-21:30"], "service_rating": ["-1"], "restaurant_link": ["http://istanbul.yemeksepeti.com/TR/Restoran/Bereket-Doner_-Gunesli-(Guneslipark)/06f597d2-2696-4723-8507-dfe54e2a7575/TR_ISTANBUL/m.ys"], "flavour_rating": ["-1"], "paymentmethods": ["Kredi Kart\u0131^Nakit"], "speed_rating": ["-1"], "local_id": ["2164004"], "is_open": ["True"], "restaurant_category_id": ["06f597d2-2696-4723-8507-dfe54e2a7575"], "restaurant_name": ["Bereket D\u00f6ner, G\u00fcne\u015fli (G\u00fcne\u015flipark)"], "minprice": ["<span style='font-weight:bold; letter-spacing:1px;'>-1</span> "]},
{"working_hours": ["10:30-22:00"], "service_rating": ["-1"], "restaurant_link": ["http://istanbul.yemeksepeti.com/TR/Restoran/Sampi_-Atasehir-(Merkez)/fe4379ea-5d4e-48c4-97e0-436a33595a61/TR_ISTANBUL/m.ys"], "flavour_rating": ["-1"], "paymentmethods": ["fastPay^Kredi Kart\u0131^Multinet^Nakit^Online Kredi Kart\u0131^PassCard Restoran Yemek Kart\u0131^SetCard^Sodexo Restoran Yemek \u00c7eki^Ticket Restaurant Yemek \u00c7eki^Ticket Restaurant Yemek Kart\u0131"], "speed_rating": ["-1"], "local_id": ["2160780"], "is_open": ["True"], "restaurant_category_id": ["fe4379ea-5d4e-48c4-97e0-436a33595a61"], "restaurant_name": ["Sampi, Ata\u015fehir (Merkez)"], "minprice": ["<span style='font-weight:bold; letter-spacing:1px;'>-1</span> "]},
{"working_hours": ["10:00-04:00"], "service_rating": ["8"], "restaurant_link": ["http://istanbul.yemeksepeti.com/TR/Restoran/Nuri-Usta-Kebap_-Bahcelievler-(Siyavuspasa)/dca7bb28-1238-43cb-8569-5d11d29fa195/TR_ISTANBUL/m.ys"], "flavour_rating": ["9"], "paymentmethods": ["Kredi Kart\u0131^Nakit"], "speed_rating": ["8"], "local_id": ["1985488"], "is_open": ["True"], "restaurant_category_id": ["dca7bb28-1238-43cb-8569-5d11d29fa195"], "restaurant_name": ["Nuri Usta Kebap, Bah\u00e7elievler (Siyavu\u015fpa\u015fa)"], "minprice": ["<span style='font-weight:bold; letter-spacing:1px;'>-1</span> "]},
{"working_hours": ["11:00-22:45"], "service_rating": ["7"], "restaurant_link": ["http://istanbul.yemeksepeti.com/TR/Restoran/Kentucky-Fried-Chicken_-Atasehir-(Merkez)/6da60450-4821-44c5-a3a8-f7f6b41c4a80/TR_ISTANBUL/m.ys"], "flavour_rating": ["8"], "paymentmethods": ["Kredi Kart\u0131^Multinet^Nakit^PassCard Restoran Yemek Kart\u0131^SetCard^Sodexo Restoran Yemek \u00c7eki^Ticket Restaurant Yemek \u00c7eki^Ticket Restaurant Yemek Kart\u0131^Winwin Yemek \u00c7eki"], "speed_rating": ["7"], "local_id": ["2168993"], "is_open": ["True"], "restaurant_category_id": ["6da60450-4821-44c5-a3a8-f7f6b41c4a80"], "restaurant_name": ["Kentucky Fried Chicken, Ata\u015fehir (Merkez)"], "minprice": ["<span style='font-weight:bold; letter-spacing:1px;'>-1</span> "]},
{"working_hours": ["10:00-23:00"], "service_rating": ["-1"], "restaurant_link": ["http://istanbul.yemeksepeti.com/TR/Restoran/Meshur-Hat-Doner_-Yenibosna/f837f4b3-d449-493d-8949-6243f79c0a93/TR_ISTANBUL/m.ys"], "flavour_rating": ["-1"], "paymentmethods": ["fastPay^Kredi Kart\u0131^Nakit^Online Kredi Kart\u0131"], "speed_rating": ["-1"], "local_id": ["2164315"], "is_open": ["True"], "restaurant_category_id": ["f837f4b3-d449-493d-8949-6243f79c0a93"], "restaurant_name": ["Me\u015fhur Hat D\u00f6ner, Yenibosna"], "minprice": ["<span style='font-weight:bold; letter-spacing:1px;'>-1</span> "]},
{"working_hours": ["11:00-21:00"], "service_rating": ["-1"], "restaurant_link": ["http://istanbul.yemeksepeti.com/TR/Restoran/Doyum-Et-Mangal_-Tuzla-(Orhanli-Mahn)/c28048db-c378-41ee-a6a8-3a97fddce3db/TR_ISTANBUL/m.ys"], "flavour_rating": ["-1"], "paymentmethods": ["fastPay^Kredi Kart\u0131^Nakit^Online Kredi Kart\u0131^Sodexo Restoran Yemek \u00c7eki^Ticket Restaurant Yemek \u00c7eki"], "speed_rating": ["-1"], "local_id": ["2164316"], "is_open": ["True"], "restaurant_category_id": ["c28048db-c378-41ee-a6a8-3a97fddce3db"], "restaurant_name": ["Doyum Et Mangal, Tuzla (Orhanl\u0131 Mah.)"], "minprice": ["<span style='font-weight:bold; letter-spacing:1px;'>-1</span> "]},
{"working_hours": ["11:00-23:00"], "service_rating": ["-1"], "restaurant_link": ["http://istanbul.yemeksepeti.com/TR/Restoran/Durumdar-Pide-ve-Lahmacun_-Silivri/a8beba4d-1771-4c2a-b418-eea14a2a4954/TR_ISTANBUL/m.ys"], "flavour_rating": ["-1"], "paymentmethods": ["Kredi Kart\u0131^Multinet^Nakit^PassCard Restoran Yemek Kart\u0131^SetCard^Sodexo Restoran Yemek \u00c7eki^Ticket Restaurant Yemek \u00c7eki^Ticket Restaurant Yemek Kart\u0131"], "speed_rating": ["-1"], "local_id": ["2162352"], "is_open": ["True"], "restaurant_category_id": ["a8beba4d-1771-4c2a-b418-eea14a2a4954"], "restaurant_name": ["D\u00fcr\u00fcmdar Pide & Lahmacun, Silivri"], "minprice": ["<span style='font-weight:bold; letter-spacing:1px;'>-1</span> "]},
{"working_hours": ["11:30-23:59"], "service_rating": ["-1"], "restaurant_link": ["http://istanbul.yemeksepeti.com/TR/Restoran/Cigkoftem_-Levent/e3477697-7f3d-4761-aae4-3190bb654082/TR_ISTANBUL/m.ys"], "flavour_rating": ["-1"], "paymentmethods": ["fastPay^Kredi Kart\u0131^Nakit^Online Kredi Kart\u0131"], "speed_rating": ["-1"], "local_id": ["2164263"], "is_open": ["True"], "restaurant_category_id": ["e3477697-7f3d-4761-aae4-3190bb654082"], "restaurant_name": ["\u00c7i\u011fk\u00f6ftem, Levent"], "minprice": ["<span style='font-weight:bold; letter-spacing:1px;'>-1</span> "]},
{"working_hours": ["11:30-22:00"], "service_rating": ["-1"], "restaurant_link": ["http://istanbul.yemeksepeti.com/TR/Restoran/Abide-Kebap-ve-Etli-Ekmek_-Atakoy-(Galeria)/e2c86084-3ec1-43e9-947a-1121c46cc6cb/TR_ISTANBUL/m.ys"], "flavour_rating": ["-1"], "paymentmethods": ["fastPay^Kredi Kart\u0131^Multinet^Nakit^Online Kredi Kart\u0131^SetCard"], "speed_rating": ["-1"], "local_id": ["2162227"], "is_open": ["True"], "restaurant_category_id": ["e2c86084-3ec1-43e9-947a-1121c46cc6cb"], "restaurant_name": ["Abide Kebap & Etli Ekmek, Atak\u00f6y (Galeria)"], "minprice": ["<span style='font-weight:bold; letter-spacing:1px;'>-1</span> "]},
{"working_hours": ["10:00-22:00"], "service_rating": ["7"], "restaurant_link": ["http://istanbul.yemeksepeti.com/TR/Restoran/Zurna-Doner_-Findikzade/5ab2ff74-0895-4ff3-bb57-556ba9c829c6/TR_ISTANBUL/m.ys"], "flavour_rating": ["7"], "paymentmethods": ["fastPay^Nakit^Online Kredi Kart\u0131"], "speed_rating": ["7"], "local_id": ["2115361"], "is_open": ["True"], "restaurant_category_id": ["5ab2ff74-0895-4ff3-bb57-556ba9c829c6"], "restaurant_name": ["Zurna D\u00f6ner, F\u0131nd\u0131kzade"], "minprice": ["<span style='font-weight:bold; letter-spacing:1px;'>-1</span> "]},
{"working_hours": ["11:00-22:00"], "service_rating": ["7"], "restaurant_link": ["http://istanbul.yemeksepeti.com/TR/Restoran/Seyidoglu_-Gokturk-Beldesi/72866a38-e5d7-4d01-8f80-fbd8678e4fcf/TR_ISTANBUL/m.ys"], "flavour_rating": ["7"], "paymentmethods": ["Kredi Kart\u0131^Nakit^PassCard Restoran Yemek Kart\u0131^Sodexo Restoran Yemek \u00c7eki^Ticket Restaurant Yemek \u00c7eki^Ticket Restaurant Yemek Kart\u0131"], "speed_rating": ["8"], "local_id": ["1297563"], "is_open": ["True"], "restaurant_category_id": ["72866a38-e5d7-4d01-8f80-fbd8678e4fcf"], "restaurant_name": ["Seyido\u011flu, G\u00f6kt\u00fcrk Beldesi"], "minprice": ["<span style='font-weight:bold; letter-spacing:1px;'>-1</span> "]},
{"working_hours": ["12:00-03:00"], "service_rating": ["10"], "restaurant_link": ["http://istanbul.yemeksepeti.com/TR/Restoran/Dondi-Baba_-Bakirkoy-(Kartaltepe)/999a1d26-80a0-47b3-8c72-63aff4a88440/TR_ISTANBUL/m.ys"], "flavour_rating": ["10"], "paymentmethods": ["Kredi Kart\u0131^Nakit"], "speed_rating": ["10"], "local_id": ["2163223"], "is_open": ["True"], "restaurant_category_id": ["999a1d26-80a0-47b3-8c72-63aff4a88440"], "restaurant_name": ["Dondi Baba, Bak\u0131rk\u00f6y (Kartaltepe)"], "minprice": ["<span style='font-weight:bold; letter-spacing:1px;'>-1</span> "]},
{"working_hours": ["11:30-22:00"], "service_rating": ["-1"], "restaurant_link": ["http://istanbul.yemeksepeti.com/TR/Restoran/Canak-Kebap-ve-Katmer_-Goztepe/5b30b6d4-da54-4319-af80-50d58a79dd0a/TR_ISTANBUL/m.ys"], "flavour_rating": ["-1"], "paymentmethods": ["Kredi Kart\u0131^Multinet^Nakit^PassCard Restoran Yemek Kart\u0131^SetCard^Sodexo Restoran Yemek \u00c7eki^Ticket Restaurant Yemek \u00c7eki^Ticket Restaurant Yemek Kart\u0131"], "speed_rating": ["-1"], "local_id": ["2160781"], "is_open": ["True"], "restaurant_category_id": ["5b30b6d4-da54-4319-af80-50d58a79dd0a"], "restaurant_name": ["\u00c7anak Kebap & Katmer, G\u00f6ztepe"], "minprice": ["<span style='font-weight:bold; letter-spacing:1px;'>-1</span> "]},
{"working_hours": ["11:30-23:59"], "service_rating": ["-1"], "restaurant_link": ["http://istanbul.yemeksepeti.com/TR/Restoran/Lezzet-Express_-Umraniye-(Tatlisu-Mahn)/a134e51c-ee39-46f2-ac52-bb667b50ad0f/TR_ISTANBUL/m.ys"], "flavour_rating": ["-1"], "paymentmethods": ["fastPay^Kredi Kart\u0131^Nakit^Online Kredi Kart\u0131^Sodexo Restoran Yemek \u00c7eki^Ticket Restaurant Yemek \u00c7eki"], "speed_rating": ["-1"], "local_id": ["2162351"], "is_open": ["True"], "restaurant_category_id": ["a134e51c-ee39-46f2-ac52-bb667b50ad0f"], "restaurant_name": ["Lezzet Express, \u00dcmraniye (Tatl\u0131su Mah.)"], "minprice": ["<span style='font-weight:bold; letter-spacing:1px;'>-1</span> "]},
{"working_hours": ["11:00-21:00"], "service_rating": ["-1"], "restaurant_link": ["http://istanbul.yemeksepeti.com/TR/Restoran/Cigkoftem_-Beylikduzu-(Baris-Mahn)/b69d43a6-d338-43b9-8be1-d139b105ea69/TR_ISTANBUL/m.ys"], "flavour_rating": ["-1"], "paymentmethods": ["fastPay^Nakit^Online Kredi Kart\u0131"], "speed_rating": ["-1"], "local_id": ["2163009"], "is_open": ["True"], "restaurant_category_id": ["b69d43a6-d338-43b9-8be1-d139b105ea69"], "restaurant_name": ["\u00c7i\u011fk\u00f6ftem, Beylikd\u00fcz\u00fc (Bar\u0131\u015f Mah.)"], "minprice": ["<span style='font-weight:bold; letter-spacing:1px;'>-1</span> "]},
{"working_hours": ["11:30-21:30"], "service_rating": ["10"], "restaurant_link": ["http://istanbul.yemeksepeti.com/TR/Restoran/Afiyet-Doner_-Esenyurt-(Cumhuriyet-Mahn)/284384b5-90d0-425a-a83b-29890df5192c/TR_ISTANBUL/m.ys"], "flavour_rating": ["10"], "paymentmethods": ["fastPay^Kredi Kart\u0131^Nakit^Online Kredi Kart\u0131"], "speed_rating": ["10"], "local_id": ["2039670"], "is_open": ["True"], "restaurant_category_id": ["284384b5-90d0-425a-a83b-29890df5192c"], "restaurant_name": ["Afiyet D\u00f6ner, Esenyurt (Cumhuriyet Mah.)"], "minprice": ["<span style='font-weight:bold; letter-spacing:1px;'>-1</span> "]},
{"working_hours": ["10:30-22:30"], "service_rating": ["-1"], "restaurant_link": ["http://istanbul.yemeksepeti.com/TR/Restoran/1976-Ozsaray-Iskender_-Umraniye-(Tatlisu-Mahn)/0d2f23ed-8f14-408b-a575-8508a88abc94/TR_ISTANBUL/m.ys"], "flavour_rating": ["-1"], "paymentmethods": ["Kredi Kart\u0131^Multinet^Nakit^PassCard Restoran Yemek Kart\u0131^SetCard^Sodexo Restoran Yemek \u00c7eki^Ticket Restaurant Yemek \u00c7eki^Ticket Restaurant Yemek Kart\u0131^Winwin Yemek \u00c7eki"], "speed_rating": ["-1"], "local_id": ["2162939"], "is_open": ["True"], "restaurant_category_id": ["0d2f23ed-8f14-408b-a575-8508a88abc94"], "restaurant_name": ["1976 \u00d6zsaray \u0130skender, \u00dcmraniye (Tatl\u0131su Mah.)"], "minprice": ["<span style='font-weight:bold; letter-spacing:1px;'>-1</span> "]},
{"working_hours": ["11:00-04:00"], "service_rating": ["-1"], "restaurant_link": ["http://istanbul.yemeksepeti.com/TR/Restoran/Dunkin-Donuts_-Sahrayicedit/0e1253fe-78b2-44c5-94c3-c6c9460b7cb4/TR_ISTANBUL/m.ys"], "flavour_rating": ["-1"], "paymentmethods": ["fastPay^Kredi Kart\u0131^Nakit^Online Kredi Kart\u0131"], "speed_rating": ["-1"], "local_id": ["2160777"], "is_open": ["True"], "restaurant_category_id": ["0e1253fe-78b2-44c5-94c3-c6c9460b7cb4"], "restaurant_name": ["Dunkin' Donuts, Sahrayicedit"], "minprice": ["<span style='font-weight:bold; letter-spacing:1px;'>-1</span> "]},
{"working_hours": ["24 Saat A\u00e7\u0131k"], "service_rating": ["8"], "restaurant_link": ["http://istanbul.yemeksepeti.com/TR/Restoran/Etiler-Marmaris_-Besiktas-(Turkali-Mahn)/c96e60d3-f128-4223-8e10-c176e20e3007/TR_ISTANBUL/m.ys"], "flavour_rating": ["8"], "paymentmethods": ["fastPay^Kredi Kart\u0131^Nakit^Online Kredi Kart\u0131"], "speed_rating": ["8"], "local_id": ["2162224"], "is_open": ["True"], "restaurant_category_id": ["c96e60d3-f128-4223-8e10-c176e20e3007"], "restaurant_name": ["Etiler Marmaris, Be\u015fikta\u015f (T\u00fcrkali Mah.)"], "minprice": ["<span style='font-weight:bold; letter-spacing:1px;'>-1</span> "]},
{"working_hours": ["10:30-23:59"], "service_rating": ["-1"], "restaurant_link": ["http://istanbul.yemeksepeti.com/TR/Restoran/Komagene-Etsiz-Cig-Kofte_-Yedikule/ff5cf8a1-6922-4b38-b004-8ee7721f2cf1/TR_ISTANBUL/m.ys"], "flavour_rating": ["-1"], "paymentmethods": ["fastPay^Kredi Kart\u0131^Nakit^Online Kredi Kart\u0131"], "speed_rating": ["-1"], "local_id": ["2160779"], "is_open": ["True"], "restaurant_category_id": ["ff5cf8a1-6922-4b38-b004-8ee7721f2cf1"], "restaurant_name": ["Komagene Etsiz \u00c7i\u011f K\u00f6fte, Yedikule"], "minprice": ["<span style='font-weight:bold; letter-spacing:1px;'>-1</span> "]},
{"working_hours": ["11:00-01:00"], "service_rating": ["-1"], "restaurant_link": ["http://istanbul.yemeksepeti.com/TR/Restoran/Tarabyali-Mar-Ice_-Tarabya/6f64c468-8466-4773-9b15-217691b42ba8/TR_ISTANBUL/m.ys"], "flavour_rating": ["-1"], "paymentmethods": ["Kredi Kart\u0131^Nakit^PassCard Restoran Yemek Kart\u0131^Sodexo Restoran Yemek \u00c7eki^Ticket Restaurant Yemek \u00c7eki^Ticket Restaurant Yemek Kart\u0131"], "speed_rating": ["-1"], "local_id": ["2161829"], "is_open": ["True"], "restaurant_category_id": ["6f64c468-8466-4773-9b15-217691b42ba8"], "restaurant_name": ["Tarabyal\u0131 Mar \u0130ce, Tarabya"], "minprice": ["<span style='font-weight:bold; letter-spacing:1px;'>-1</span> "]},
{"working_hours": ["11:30-22:00"], "service_rating": ["-1"], "restaurant_link": ["http://istanbul.yemeksepeti.com/TR/Restoran/Aypi-Aydin-Pidecisi_-Atasehir-(Yenisehir-Mahn)/7a250f22-73af-400d-ba7e-ae5e7f49e11d/TR_ISTANBUL/m.ys"], "flavour_rating": ["-1"], "paymentmethods": ["fastPay^Kredi Kart\u0131^Nakit^Online Kredi Kart\u0131"], "speed_rating": ["-1"], "local_id": ["2160775"], "is_open": ["True"], "restaurant_category_id": ["7a250f22-73af-400d-ba7e-ae5e7f49e11d"], "restaurant_name": ["Aypi Ayd\u0131n Pidecisi, Ata\u015fehir (Yeni\u015fehir Mah.)"], "minprice": ["<span style='font-weight:bold; letter-spacing:1px;'>-1</span> "]},
{"working_hours": ["12:00-01:00"], "service_rating": ["6"], "restaurant_link": ["http://istanbul.yemeksepeti.com/TR/Restoran/Komagene-Etsiz-Cig-Kofte_-Kartal-(Soganlik-Orta-Mahn)/e0c99e03-2718-4524-82cb-0df45f2b3a8f/TR_ISTANBUL/m.ys"], "flavour_rating": ["6"], "paymentmethods": ["fastPay^Kredi Kart\u0131^Nakit^Online Kredi Kart\u0131"], "speed_rating": ["6"], "local_id": ["2160778"], "is_open": ["True"], "restaurant_category_id": ["e0c99e03-2718-4524-82cb-0df45f2b3a8f"], "restaurant_name": ["Komagene Etsiz \u00c7i\u011f K\u00f6fte, Kartal (So\u011fanl\u0131k Orta Mah.)"], "minprice": ["<span style='font-weight:bold; letter-spacing:1px;'>-1</span> "]},
{"working_hours": ["11:30-23:00"], "service_rating": ["-1"], "restaurant_link": ["http://istanbul.yemeksepeti.com/TR/Restoran/Meshur-Tandir-Doner_-Kadikoy-(Merkez)/7ffcfc3d-3e15-462e-9b60-2b281881d127/TR_ISTANBUL/m.ys"], "flavour_rating": ["-1"], "paymentmethods": ["fastPay^Kredi Kart\u0131^Multinet^Nakit^Online Kredi Kart\u0131^PassCard Restoran Yemek Kart\u0131^SetCard^Sodexo Restoran Yemek \u00c7eki^Ticket Restaurant Yemek \u00c7eki^Ticket Restaurant Yemek Kart\u0131"], "speed_rating": ["-1"], "local_id": ["2160656"], "is_open": ["True"], "restaurant_category_id": ["7ffcfc3d-3e15-462e-9b60-2b281881d127"], "restaurant_name": ["Me\u015fhur Tand\u0131r D\u00f6ner, Kad\u0131k\u00f6y (Merkez)"], "minprice": ["<span style='font-weight:bold; letter-spacing:1px;'>-1</span> "]},
{"working_hours": ["11:00-23:00"], "service_rating": ["10"], "restaurant_link": ["http://istanbul.yemeksepeti.com/TR/Restoran/Papa-Johns-Pizza_-Beylikduzu-(Cumhuriyet-Mahn)/59ca4ef0-691e-4259-81e5-277c3aa00c08/TR_ISTANBUL/m.ys"], "flavour_rating": ["9"], "paymentmethods": ["Kredi Kart\u0131^Multinet^Nakit"], "speed_rating": ["10"], "local_id": ["2160131"], "is_open": ["True"], "restaurant_category_id": ["59ca4ef0-691e-4259-81e5-277c3aa00c08"], "restaurant_name": ["Papa John's Pizza, Beylikd\u00fcz\u00fc (Cumhuriyet Mah.)"], "minprice": ["<span style='font-weight:bold; letter-spacing:1px;'>-1</span> "]},
{"working_hours": ["11:30-22:00"], "service_rating": ["-1"], "restaurant_link": ["http://istanbul.yemeksepeti.com/TR/Restoran/Mis-Konyali-Konya-Mutfagi_-Umraniye-(Inkilap-Mahn)/da256ebd-17fc-4da2-a573-23833063a1d6/TR_ISTANBUL/m.ys"], "flavour_rating": ["-1"], "paymentmethods": ["fastPay^Kredi Kart\u0131^Multinet^Nakit^Online Kredi Kart\u0131^PassCard Restoran Yemek Kart\u0131^SetCard^Sodexo Restoran Yemek \u00c7eki^Ticket Restaurant Yemek \u00c7eki^Ticket Restaurant Yemek Kart\u0131"], "speed_rating": ["-1"], "local_id": ["2158979"], "is_open": ["True"], "restaurant_category_id": ["da256ebd-17fc-4da2-a573-23833063a1d6"], "restaurant_name": ["Mis Konyal\u0131 Konya Mutfa\u011f\u0131, \u00dcmraniye (\u0130nkilap Mah.)"], "minprice": ["<span style='font-weight:bold; letter-spacing:1px;'>-1</span> "]},
{"working_hours": ["10:00-22:00"], "service_rating": ["10"], "restaurant_link": ["http://istanbul.yemeksepeti.com/TR/Restoran/Edirne-Kirkpinar-Lokantasi_-Kucukbakkalkoy-(Brandium)/4f5d1a98-6753-43a3-8d7a-05313d2e13e8/TR_ISTANBUL/m.ys"], "flavour_rating": ["8"], "paymentmethods": ["fastPay^Kredi Kart\u0131^Multinet^Nakit^Online Kredi Kart\u0131^PassCard Restoran Yemek Kart\u0131^SetCard^Sodexo Restoran Yemek \u00c7eki^Ticket Restaurant Yemek \u00c7eki^Ticket Restaurant Yemek Kart\u0131^Winwin Yemek \u00c7eki"], "speed_rating": ["9"], "local_id": ["2159206"], "is_open": ["True"], "restaurant_category_id": ["4f5d1a98-6753-43a3-8d7a-05313d2e13e8"], "restaurant_name": ["Edirne K\u0131rkp\u0131nar Lokantas\u0131, K\u00fc\u00e7\u00fckbakkalk\u00f6y (Brandium)"], "minprice": ["<span style='font-weight:bold; letter-spacing:1px;'>-1</span> "]},
{"working_hours": ["11:00-23:00"], "service_rating": ["8"], "restaurant_link": ["http://istanbul.yemeksepeti.com/TR/Restoran/Kilis-Sofrasi_-Fatih-(Silivri-Kapi-Mahn)/fb13ab30-a36b-4d41-bd38-743f796bdb48/TR_ISTANBUL/m.ys"], "flavour_rating": ["8"], "paymentmethods": ["fastPay^Kredi Kart\u0131^Nakit^Online Kredi Kart\u0131^PassCard Restoran Yemek Kart\u0131^Sodexo Restoran Yemek \u00c7eki^Ticket Restaurant Yemek \u00c7eki^Ticket Restaurant Yemek Kart\u0131"], "speed_rating": ["8"], "local_id": ["2158978"], "is_open": ["True"], "restaurant_category_id": ["fb13ab30-a36b-4d41-bd38-743f796bdb48"], "restaurant_name": ["Kilis Sofras\u0131, Fatih (Silivri Kap\u0131 Mah.)"], "minprice": ["<span style='font-weight:bold; letter-spacing:1px;'>-1</span> "]},
{"working_hours": ["09:00-22:00"], "service_rating": ["9"], "restaurant_link": ["http://istanbul.yemeksepeti.com/TR/Restoran/Erenkoy-Masala-Doner_-Erenkoy/ab4350b9-92cc-48e5-a868-5b80e099a28d/TR_ISTANBUL/m.ys"], "flavour_rating": ["8"], "paymentmethods": ["fastPay^Kredi Kart\u0131^Multinet^Nakit^Online Kredi Kart\u0131^PassCard Restoran Yemek Kart\u0131^SetCard^Sodexo Restoran Yemek \u00c7eki^Ticket Restaurant Yemek \u00c7eki^Ticket Restaurant Yemek Kart\u0131"], "speed_rating": ["9"], "local_id": ["2056844"], "is_open": ["True"], "restaurant_category_id": ["ab4350b9-92cc-48e5-a868-5b80e099a28d"], "restaurant_name": ["Erenk\u00f6y Masala D\u00f6ner, Erenk\u00f6y"], "minprice": ["<span style='font-weight:bold; letter-spacing:1px;'>-1</span> "]},
{"working_hours": ["09:30-20:30"], "service_rating": ["-1"], "restaurant_link": ["http://istanbul.yemeksepeti.com/TR/Restoran/Zinde-Cafe_-Gokturk-Beldesi/fa6aa93e-de7c-46eb-90dd-064d32231cfa/TR_ISTANBUL/m.ys"], "flavour_rating": ["-1"], "paymentmethods": ["fastPay^Kredi Kart\u0131^Nakit^Online Kredi Kart\u0131"], "speed_rating": ["-1"], "local_id": ["2149568"], "is_open": ["True"], "restaurant_category_id": ["fa6aa93e-de7c-46eb-90dd-064d32231cfa"], "restaurant_name": ["Zinde Cafe, G\u00f6kt\u00fcrk Beldesi"], "minprice": ["<span style='font-weight:bold; letter-spacing:1px;'>-1</span> "]},
{"working_hours": ["12:00-22:00"], "service_rating": ["-1"], "restaurant_link": ["http://istanbul.yemeksepeti.com/TR/Restoran/Kozde-Kebap_-Istinye-(Pinar-Mahn)/1f3f2f50-c924-4449-80b7-4b57b09daa3a/TR_ISTANBUL/m.ys"], "flavour_rating": ["-1"], "paymentmethods": ["fastPay^Kredi Kart\u0131^Nakit^Online Kredi Kart\u0131"], "speed_rating": ["-1"], "local_id": ["2149904"], "is_open": ["True"], "restaurant_category_id": ["1f3f2f50-c924-4449-80b7-4b57b09daa3a"], "restaurant_name": ["K\u00f6zde Kebap, \u0130stinye (P\u0131nar Mah.)"], "minprice": ["<span style='font-weight:bold; letter-spacing:1px;'>-1</span> "]},
{"working_hours": ["08:30-18:30"], "service_rating": ["-1"], "restaurant_link": ["http://istanbul.yemeksepeti.com/TR/Restoran/Dilim-Borek_-Basaksehir/25b6b63a-bfb7-4ddd-8123-0fe3b75faf77/TR_ISTANBUL/m.ys"], "flavour_rating": ["-1"], "paymentmethods": ["fastPay^Kredi Kart\u0131^Nakit^Online Kredi Kart\u0131"], "speed_rating": ["-1"], "local_id": ["2157183"], "is_open": ["False"], "restaurant_category_id": ["25b6b63a-bfb7-4ddd-8123-0fe3b75faf77"], "restaurant_name": ["Dilim B\u00f6rek, Ba\u015fak\u015fehir"], "minprice": ["<span style='font-weight:bold; letter-spacing:1px;'>-1</span> "]},
{"working_hours": ["11:00-02:00"], "service_rating": ["9"], "restaurant_link": ["http://istanbul.yemeksepeti.com/TR/Restoran/Berlin-Pizza_-Osmanbey/533c8b86-4174-4190-ae7d-10ec85c1056f/TR_ISTANBUL/m.ys"], "flavour_rating": ["9"], "paymentmethods": ["fastPay^Kredi Kart\u0131^Nakit^Online Kredi Kart\u0131"], "speed_rating": ["9"], "local_id": ["2156679"], "is_open": ["True"], "restaurant_category_id": ["533c8b86-4174-4190-ae7d-10ec85c1056f"], "restaurant_name": ["Berlin Pizza, Osmanbey"], "minprice": ["<span style='font-weight:bold; letter-spacing:1px;'>-1</span> "]},
{"working_hours": ["08:00-22:00"], "service_rating": ["-1"], "restaurant_link": ["http://istanbul.yemeksepeti.com/TR/Restoran/Altintepsi-Baklava-ve-Borek_-Tuzla-(Orhanli-Mhn)/143a2b76-0e9f-4bbb-8855-06a6ca73b640/TR_ISTANBUL/m.ys"], "flavour_rating": ["-1"], "paymentmethods": ["fastPay^Kredi Kart\u0131^Nakit^Online Kredi Kart\u0131"], "speed_rating": ["-1"], "local_id": ["2154474"], "is_open": ["True"], "restaurant_category_id": ["143a2b76-0e9f-4bbb-8855-06a6ca73b640"], "restaurant_name": ["Alt\u0131ntepsi Baklava & B\u00f6rek, Tuzla (Orhanl\u0131 Mh.)"], "minprice": ["<span style='font-weight:bold; letter-spacing:1px;'>-1</span> "]},
{"working_hours": ["24 Saat A\u00e7\u0131k"], "service_rating": ["8"], "restaurant_link": ["http://istanbul.yemeksepeti.com/TR/Restoran/Bebek-Susam_-Bebek/fcb72b4c-d3a6-42ff-b302-fe1d4ead51f7/TR_ISTANBUL/m.ys"], "flavour_rating": ["9"], "paymentmethods": ["fastPay^Kredi Kart\u0131^Nakit^Online Kredi Kart\u0131"], "speed_rating": ["8"], "local_id": ["2156678"], "is_open": ["True"], "restaurant_category_id": ["fcb72b4c-d3a6-42ff-b302-fe1d4ead51f7"], "restaurant_name": ["Bebek Susam, Bebek"], "minprice": ["<span style='font-weight:bold; letter-spacing:1px;'>-1</span> "]},
{"working_hours": ["24 Saat A\u00e7\u0131k"], "service_rating": ["9"], "restaurant_link": ["http://istanbul.yemeksepeti.com/TR/Restoran/Suadiye-Marmaris_-Umraniye-(Istiklal-Mahn)/8f77072d-e383-4c78-b17f-109d6a08fcf2/TR_ISTANBUL/m.ys"], "flavour_rating": ["9"], "paymentmethods": ["Kredi Kart\u0131^Nakit^Sodexo Restoran Yemek \u00c7eki^Ticket Restaurant Yemek \u00c7eki"], "speed_rating": ["9"], "local_id": ["2154743"], "is_open": ["True"], "restaurant_category_id": ["8f77072d-e383-4c78-b17f-109d6a08fcf2"], "restaurant_name": ["Suadiye Marmaris, \u00dcmraniye (\u0130stiklal Mah.)"], "minprice": ["<span style='font-weight:bold; letter-spacing:1px;'>-1</span> "]},
{"working_hours": ["11:30-22:15"], "service_rating": ["10"], "restaurant_link": ["http://istanbul.yemeksepeti.com/TR/Restoran/Tahin_-Hisarustu/1a4e7b81-9cf4-4750-b00d-fe0300083567/TR_ISTANBUL/m.ys"], "flavour_rating": ["9"], "paymentmethods": ["Kredi Kart\u0131^Nakit"], "speed_rating": ["10"], "local_id": ["2155045"], "is_open": ["True"], "restaurant_category_id": ["1a4e7b81-9cf4-4750-b00d-fe0300083567"], "restaurant_name": ["Tahin, Hisar\u00fcst\u00fc"], "minprice": ["<span style='font-weight:bold; letter-spacing:1px;'>-1</span> "]},
{"working_hours": ["11:00-21:30"], "service_rating": ["-1"], "restaurant_link": ["http://istanbul.yemeksepeti.com/TR/Restoran/Sahra-Yunus-Balikcilik_-Sahrayicedit/6a6565e4-3aac-4b30-b0ef-775780aa77b2/TR_ISTANBUL/m.ys"], "flavour_rating": ["-1"], "paymentmethods": ["Kredi Kart\u0131^Nakit"], "speed_rating": ["-1"], "local_id": ["2155191"], "is_open": ["True"], "restaurant_category_id": ["6a6565e4-3aac-4b30-b0ef-775780aa77b2"], "restaurant_name": ["Sahra Yunus Bal\u0131k\u00e7\u0131l\u0131k, Sahrayicedit"], "minprice": ["<span style='font-weight:bold; letter-spacing:1px;'>-1</span> "]},
{"working_hours": ["11:00-01:00"], "service_rating": ["8"], "restaurant_link": ["http://istanbul.yemeksepeti.com/TR/Restoran/Komagene-Etsiz-Cig-Kofte_-Pangalti/56d8f84c-24df-4fcb-8705-9a92cb7bcb86/TR_ISTANBUL/m.ys"], "flavour_rating": ["8"], "paymentmethods": ["fastPay^Kredi Kart\u0131^Nakit^Online Kredi Kart\u0131"], "speed_rating": ["9"], "local_id": ["2154742"], "is_open": ["True"], "restaurant_category_id": ["56d8f84c-24df-4fcb-8705-9a92cb7bcb86"], "restaurant_name": ["Komagene Etsiz \u00c7i\u011f K\u00f6fte, Pangalt\u0131"], "minprice": ["<span style='font-weight:bold; letter-spacing:1px;'>-1</span> "]},
{"working_hours": ["10:00-23:59"], "service_rating": ["-1"], "restaurant_link": ["http://istanbul.yemeksepeti.com/TR/Restoran/Ev-Cafe-ve-Karadeniz-Pidesi_-Sariyer-(Arikoy)/59dc640a-6225-42e7-92c7-103af8e4c630/TR_ISTANBUL/m.ys"], "flavour_rating": ["-1"], "paymentmethods": ["fastPay^Kredi Kart\u0131^Nakit^Online Kredi Kart\u0131"], "speed_rating": ["-1"], "local_id": ["2145795"], "is_open": ["True"], "restaurant_category_id": ["59dc640a-6225-42e7-92c7-103af8e4c630"], "restaurant_name": ["Ev Cafe & Karadeniz Pidesi, Sar\u0131yer (Ar\u0131k\u00f6y)"], "minprice": ["<span style='font-weight:bold; letter-spacing:1px;'>-1</span> "]},
{"working_hours": ["11:00-23:59"], "service_rating": ["-1"], "restaurant_link": ["http://istanbul.yemeksepeti.com/TR/Restoran/Meshur-Adiyaman-Cig-Koftecisi_-Goztepe/eadc989b-d4a0-4242-b628-951294f62da6/TR_ISTANBUL/m.ys"], "flavour_rating": ["-1"], "paymentmethods": ["fastPay^Nakit^Online Kredi Kart\u0131"], "speed_rating": ["-1"], "local_id": ["2149808"], "is_open": ["True"], "restaurant_category_id": ["eadc989b-d4a0-4242-b628-951294f62da6"], "restaurant_name": ["Me\u015fhur Ad\u0131yaman \u00c7i\u011f K\u00f6ftecisi, G\u00f6ztepe"], "minprice": ["<span style='font-weight:bold; letter-spacing:1px;'>-1</span> "]},
{"working_hours": ["08:00-03:59"], "service_rating": ["7"], "restaurant_link": ["http://istanbul.yemeksepeti.com/TR/Restoran/Bebek-Marmara_-Findikzade/9b65807a-be09-4c83-bc85-1e4a16c9c110/TR_ISTANBUL/m.ys"], "flavour_rating": ["7"], "paymentmethods": ["fastPay^Kredi Kart\u0131^Multinet^Nakit^Online Kredi Kart\u0131^PassCard Restoran Yemek Kart\u0131^Sodexo Restoran Yemek \u00c7eki^Ticket Restaurant Yemek \u00c7eki^Ticket Restaurant Yemek Kart\u0131"], "speed_rating": ["8"], "local_id": ["2059345"], "is_open": ["True"], "restaurant_category_id": ["9b65807a-be09-4c83-bc85-1e4a16c9c110"], "restaurant_name": ["Bebek Marmara, F\u0131nd\u0131kzade"], "minprice": ["<span style='font-weight:bold; letter-spacing:1px;'>-1</span> "]},
{"working_hours": ["11:30-23:00"], "service_rating": ["8"], "restaurant_link": ["http://istanbul.yemeksepeti.com/TR/Restoran/Bir-Bucuk-Doner_-Bahcesehir/b92c718d-305e-4d0c-8346-3b47ec11391c/TR_ISTANBUL/m.ys"], "flavour_rating": ["8"], "paymentmethods": ["fastPay^Kredi Kart\u0131^Nakit^Online Kredi Kart\u0131^PassCard Restoran Yemek Kart\u0131^SetCard^Sodexo Restoran Yemek \u00c7eki^Ticket Restaurant Yemek \u00c7eki^Ticket Restaurant Yemek Kart\u0131"], "speed_rating": ["8"], "local_id": ["2151735"], "is_open": ["True"], "restaurant_category_id": ["b92c718d-305e-4d0c-8346-3b47ec11391c"], "restaurant_name": ["Bir Bu\u00e7uk D\u00f6ner, Bah\u00e7e\u015fehir"], "minprice": ["<span style='font-weight:bold; letter-spacing:1px;'>-1</span> "]},
{"working_hours": ["24 Saat A\u00e7\u0131k"], "service_rating": ["8"], "restaurant_link": ["http://istanbul.yemeksepeti.com/TR/Restoran/Maslak-Burger_-Maslak/d6be799a-8a50-43c6-b89e-098712c62482/TR_ISTANBUL/m.ys"], "flavour_rating": ["8"], "paymentmethods": ["fastPay^Kredi Kart\u0131^Nakit^Online Kredi Kart\u0131"], "speed_rating": ["9"], "local_id": ["2154475"], "is_open": ["True"], "restaurant_category_id": ["d6be799a-8a50-43c6-b89e-098712c62482"], "restaurant_name": ["Maslak Burger, Maslak"], "minprice": ["<span style='font-weight:bold; letter-spacing:1px;'>-1</span> "]},
{"working_hours": ["11:30-23:00"], "service_rating": ["9"], "restaurant_link": ["http://istanbul.yemeksepeti.com/TR/Restoran/Cinli-Kardes-Restaurant_-Ferikoy/6bf4f838-2efe-4d58-8e60-ef713682adbf/TR_ISTANBUL/m.ys"], "flavour_rating": ["8"], "paymentmethods": ["fastPay^Kredi Kart\u0131^Multinet^Nakit^Online Kredi Kart\u0131^Sodexo Restoran Yemek \u00c7eki^Ticket Restaurant Yemek \u00c7eki"], "speed_rating": ["9"], "local_id": ["2150290"], "is_open": ["True"], "restaurant_category_id": ["6bf4f838-2efe-4d58-8e60-ef713682adbf"], "restaurant_name": ["\u00c7inli Karde\u015f Restaurant, Ferik\u00f6y"], "minprice": ["<span style='font-weight:bold; letter-spacing:1px;'>-1</span> "]},
{"working_hours": ["12:00-21:30"], "service_rating": ["9"], "restaurant_link": ["http://istanbul.yemeksepeti.com/TR/Restoran/Far-East_-Acibadem-(Akasya)/c8f3a1af-ad75-44b8-97a7-1e86242e505e/TR_ISTANBUL/m.ys"], "flavour_rating": ["8"], "paymentmethods": ["Kredi Kart\u0131^Multinet^Nakit^PassCard Restoran Yemek Kart\u0131^Sodexo Restoran Yemek \u00c7eki^Ticket Restaurant Yemek \u00c7eki^Ticket Restaurant Yemek Kart\u0131"], "speed_rating": ["8"], "local_id": ["2150295"], "is_open": ["True"], "restaurant_category_id": ["c8f3a1af-ad75-44b8-97a7-1e86242e505e"], "restaurant_name": ["Far East, Ac\u0131badem (Akasya)"], "minprice": ["<span style='font-weight:bold; letter-spacing:1px;'>-1</span> "]},
{"working_hours": ["10:00-23:00"], "service_rating": ["8"], "restaurant_link": ["http://istanbul.yemeksepeti.com/TR/Restoran/Kofteci-Ismail_-Kozyatagi/e664002b-e57d-44ac-adac-0ca06af07998/TR_ISTANBUL/m.ys"], "flavour_rating": ["9"], "paymentmethods": ["fastPay^Kredi Kart\u0131^Multinet^Nakit^Online Kredi Kart\u0131^PassCard Restoran Yemek Kart\u0131^Sodexo Restoran Yemek \u00c7eki^Ticket Restaurant Yemek \u00c7eki^Ticket Restaurant Yemek Kart\u0131"], "speed_rating": ["9"], "local_id": ["2150292"], "is_open": ["True"], "restaurant_category_id": ["e664002b-e57d-44ac-adac-0ca06af07998"], "restaurant_name": ["K\u00f6fteci \u0130smail, Kozyata\u011f\u0131"], "minprice": ["<span style='font-weight:bold; letter-spacing:1px;'>-1</span> "]},
{"working_hours": ["10:00-01:00"], "service_rating": ["7"], "restaurant_link": ["http://istanbul.yemeksepeti.com/TR/Restoran/Pilavli-Cafe_-Besiktas-(Turkali-Mahn)/2b36b822-7e4b-4028-9a1c-e62a22cd35b2/TR_ISTANBUL/m.ys"], "flavour_rating": ["7"], "paymentmethods": ["fastPay^Kredi Kart\u0131^Multinet^Nakit^Online Kredi Kart\u0131^PassCard Restoran Yemek Kart\u0131^Sodexo Restoran Yemek \u00c7eki^Ticket Restaurant Yemek \u00c7eki^Ticket Restaurant Yemek Kart\u0131"], "speed_rating": ["8"], "local_id": ["2150294"], "is_open": ["True"], "restaurant_category_id": ["2b36b822-7e4b-4028-9a1c-e62a22cd35b2"], "restaurant_name": ["Pilavl\u0131 Cafe, Be\u015fikta\u015f (T\u00fcrkali Mah.)"], "minprice": ["<span style='font-weight:bold; letter-spacing:1px;'>-1</span> "]},
{"working_hours": ["10:00-22:00"], "service_rating": ["8"], "restaurant_link": ["http://istanbul.yemeksepeti.com/TR/Restoran/Citir-Usta_-Sanayi-Mahn/83829f1b-911f-4ddd-a41f-04211c1e18bc/TR_ISTANBUL/m.ys"], "flavour_rating": ["8"], "paymentmethods": ["Kredi Kart\u0131^Multinet^Nakit^PassCard Restoran Yemek Kart\u0131^SetCard^Sodexo Restoran Yemek \u00c7eki^Ticket Restaurant Yemek \u00c7eki^Ticket Restaurant Yemek Kart\u0131"], "speed_rating": ["8"], "local_id": ["2151965"], "is_open": ["True"], "restaurant_category_id": ["83829f1b-911f-4ddd-a41f-04211c1e18bc"], "restaurant_name": ["\u00c7\u0131t\u0131r Usta, Sanayi Mah."], "minprice": ["<span style='font-weight:bold; letter-spacing:1px;'>-1</span> "]},
{"working_hours": ["11:00-03:00"], "service_rating": ["9"], "restaurant_link": ["http://istanbul.yemeksepeti.com/TR/Restoran/Lazanye_-Karakoy/c3f77322-6ac6-4a3c-ac74-3a11818d7b60/TR_ISTANBUL/m.ys"], "flavour_rating": ["9"], "paymentmethods": ["fastPay^Kredi Kart\u0131^Nakit^Online Kredi Kart\u0131"], "speed_rating": ["9"], "local_id": ["2150327"], "is_open": ["True"], "restaurant_category_id": ["c3f77322-6ac6-4a3c-ac74-3a11818d7b60"], "restaurant_name": ["Lazanye, Karak\u00f6y"], "minprice": ["<span style='font-weight:bold; letter-spacing:1px;'>-1</span> "]},
{"working_hours": ["11:00-22:00"], "service_rating": ["-1"], "restaurant_link": ["http://istanbul.yemeksepeti.com/TR/Restoran/Birinci-Profiterol-Cafe_-Tesvikiye/6d7e0060-0d60-4df8-a72d-7ec17847899b/TR_ISTANBUL/m.ys"], "flavour_rating": ["-1"], "paymentmethods": ["fastPay^Nakit^Online Kredi Kart\u0131"], "speed_rating": ["-1"], "local_id": ["2152299"], "is_open": ["True"], "restaurant_category_id": ["6d7e0060-0d60-4df8-a72d-7ec17847899b"], "restaurant_name": ["Birinci Profiterol Cafe, Te\u015fvikiye"], "minprice": ["<span style='font-weight:bold; letter-spacing:1px;'>-1</span> "]},
{"working_hours": [""], "service_rating": ["9"], "restaurant_link": ["http://istanbul.yemeksepeti.com/TR/Restoran/Oses-Cig-Kofte_-Merter/f3338718-9798-4188-b8e7-884a46e50428/TR_ISTANBUL/m.ys"], "flavour_rating": ["9"], "paymentmethods": ["fastPay^Nakit^Online Kredi Kart\u0131"], "speed_rating": ["10"], "local_id": ["2151964"], "is_open": ["True"], "restaurant_category_id": ["f3338718-9798-4188-b8e7-884a46e50428"], "restaurant_name": ["Oses \u00c7i\u011f K\u00f6fte, Merter"], "minprice": ["<span style='font-weight:bold; letter-spacing:1px;'>-1</span> "]},
{"working_hours": ["09:00-22:00"], "service_rating": ["9"], "restaurant_link": ["http://istanbul.yemeksepeti.com/TR/Restoran/Meal-Box_-Atasehir-(Barbaros-Mahn)/32a684fa-1689-4fef-ae82-9c1dedb2625a/TR_ISTANBUL/m.ys"], "flavour_rating": ["9"], "paymentmethods": ["fastPay^Kredi Kart\u0131^Multinet^Nakit^Online Kredi Kart\u0131^PassCard Restoran Yemek Kart\u0131^SetCard^Sodexo Restoran Yemek \u00c7eki^Ticket Restaurant Yemek \u00c7eki^Ticket Restaurant Yemek Kart\u0131"], "speed_rating": ["8"], "local_id": ["2151736"], "is_open": ["True"], "restaurant_category_id": ["32a684fa-1689-4fef-ae82-9c1dedb2625a"], "restaurant_name": ["Meal Box, Ata\u015fehir (Barbaros Mah.)"], "minprice": ["<span style='font-weight:bold; letter-spacing:1px;'>-1</span> "]},
{"working_hours": ["11:00-23:00"], "service_rating": ["-1"], "restaurant_link": ["http://istanbul.yemeksepeti.com/TR/Restoran/Citir-Usta_-Beylikduzu-(Yakuplu)/a406d8b2-7d7d-46cd-ace3-c268c684c8c0/TR_ISTANBUL/m.ys"], "flavour_rating": ["-1"], "paymentmethods": ["Kredi Kart\u0131^Multinet^Nakit^PassCard Restoran Yemek Kart\u0131^Sodexo Restoran Yemek \u00c7eki^Ticket Restaurant Yemek \u00c7eki^Ticket Restaurant Yemek Kart\u0131^Winwin Yemek \u00c7eki"], "speed_rating": ["-1"], "local_id": ["2152298"], "is_open": ["True"], "restaurant_category_id": ["a406d8b2-7d7d-46cd-ace3-c268c684c8c0"], "restaurant_name": ["\u00c7\u0131t\u0131r Usta, Beylikd\u00fcz\u00fc (Yakuplu)"], "minprice": ["<span style='font-weight:bold; letter-spacing:1px;'>-1</span> "]},
{"working_hours": ["10:30-03:00"], "service_rating": ["9"], "restaurant_link": ["http://istanbul.yemeksepeti.com/TR/Restoran/Pizza-Pizza-Delivery_-Kagithane/f7755208-7e74-4a84-81d8-59d2a366e64f/TR_ISTANBUL/m.ys"], "flavour_rating": ["8"], "paymentmethods": ["fastPay^Kredi Kart\u0131^Multinet^Nakit^Online Kredi Kart\u0131^SetCard^Ticket Restaurant Yemek \u00c7eki"], "speed_rating": ["8"], "local_id": ["2104484"], "is_open": ["True"], "restaurant_category_id": ["f7755208-7e74-4a84-81d8-59d2a366e64f"], "restaurant_name": ["Pizza Pizza Delivery, Ka\u011f\u0131thane"], "minprice": ["<span style='font-weight:bold; letter-spacing:1px;'>-1</span> "]},
{"working_hours": ["11:00-05:00"], "service_rating": ["7"], "restaurant_link": ["http://istanbul.yemeksepeti.com/TR/Restoran/Urfali-Kardesler-Kebap-ve-Lahmacun_-Gultepe-(Telsizler-Mahn)/9b6075d2-ee57-423b-a5d1-7226d686b190/TR_ISTANBUL/m.ys"], "flavour_rating": ["7"], "paymentmethods": ["fastPay^Kredi Kart\u0131^Multinet^Nakit^Online Kredi Kart\u0131^PassCard Restoran Yemek Kart\u0131^Sodexo Restoran Yemek \u00c7eki^Ticket Restaurant Yemek \u00c7eki^Ticket Restaurant Yemek Kart\u0131"], "speed_rating": ["7"], "local_id": ["2150289"], "is_open": ["True"], "restaurant_category_id": ["9b6075d2-ee57-423b-a5d1-7226d686b190"], "restaurant_name": ["Urfal\u0131 Karde\u015fler Kebap & Lahmacun, G\u00fcltepe (Telsizler Mah.)"], "minprice": ["<span style='font-weight:bold; letter-spacing:1px;'>-1</span> "]},
{"working_hours": ["11:00-01:00"], "service_rating": ["9"], "restaurant_link": ["http://istanbul.yemeksepeti.com/TR/Restoran/Erdoganlar-Kebap-ve-Pide_-Gaziosmanpasa-(Besyuzevler)/7cf0d871-6b84-44f1-9bc5-086ea825196c/TR_ISTANBUL/m.ys"], "flavour_rating": ["9"], "paymentmethods": ["fastPay^Kredi Kart\u0131^Multinet^Nakit^Online Kredi Kart\u0131^PassCard Restoran Yemek Kart\u0131^SetCard^Sodexo Restoran Yemek \u00c7eki^Ticket Restaurant Yemek \u00c7eki^Ticket Restaurant Yemek Kart\u0131^Winwin Yemek \u00c7eki"], "speed_rating": ["9"], "local_id": ["2151737"], "is_open": ["True"], "restaurant_category_id": ["7cf0d871-6b84-44f1-9bc5-086ea825196c"], "restaurant_name": ["Erdo\u011fanlar Kebap & Pide, Gaziosmanpa\u015fa (Be\u015fy\u00fczevler)"], "minprice": ["<span style='font-weight:bold; letter-spacing:1px;'>-1</span> "]},
{"working_hours": ["11:30-23:00"], "service_rating": ["9"], "restaurant_link": ["http://istanbul.yemeksepeti.com/TR/Restoran/Burger_-Goztepe/e1e20e80-4c5f-438e-9394-7ebd239d08cf/TR_ISTANBUL/m.ys"], "flavour_rating": ["9"], "paymentmethods": ["fastPay^Kredi Kart\u0131^Nakit^Online Kredi Kart\u0131"], "speed_rating": ["9"], "local_id": ["2151966"], "is_open": ["True"], "restaurant_category_id": ["e1e20e80-4c5f-438e-9394-7ebd239d08cf"], "restaurant_name": ["Burger@, G\u00f6ztepe"], "minprice": ["<span style='font-weight:bold; letter-spacing:1px;'>-1</span> "]},
{"working_hours": ["13:00-23:00"], "service_rating": ["8"], "restaurant_link": ["http://istanbul.yemeksepeti.com/TR/Restoran/Giolitti-Dondurma_-Levent/e44bc1ca-3474-4755-93de-06ab05c36359/TR_ISTANBUL/m.ys"], "flavour_rating": ["7"], "paymentmethods": ["fastPay^Kredi Kart\u0131^Nakit^Online Kredi Kart\u0131"], "speed_rating": ["8"], "local_id": ["1923091"], "is_open": ["True"], "restaurant_category_id": ["e44bc1ca-3474-4755-93de-06ab05c36359"], "restaurant_name": ["Giolitti Dondurma, Levent"], "minprice": ["<span style='font-weight:bold; letter-spacing:1px;'>-1</span> "]},
{"working_hours": ["11:30-23:59"], "service_rating": ["9"], "restaurant_link": ["http://istanbul.yemeksepeti.com/TR/Restoran/Nug-Nug-Chef_-Kiziltoprak/b8c8e1b4-194b-44b2-84d8-a60b03505ec8/TR_ISTANBUL/m.ys"], "flavour_rating": ["9"], "paymentmethods": ["fastPay^Kredi Kart\u0131^Nakit^Online Kredi Kart\u0131"], "speed_rating": ["9"], "local_id": ["2145752"], "is_open": ["True"], "restaurant_category_id": ["b8c8e1b4-194b-44b2-84d8-a60b03505ec8"], "restaurant_name": ["Nug Nug Chef, K\u0131z\u0131ltoprak"], "minprice": ["<span style='font-weight:bold; letter-spacing:1px;'>-1</span> "]},
{"working_hours": ["11:00-23:00"], "service_rating": ["8"], "restaurant_link": ["http://istanbul.yemeksepeti.com/TR/Restoran/Meshur-Hat-Doner_-Umraniye-(Yamanevler-Mahn)/a4d6a52f-c949-4a22-970b-cc12aeef838d/TR_ISTANBUL/m.ys"], "flavour_rating": ["8"], "paymentmethods": ["fastPay^Kredi Kart\u0131^Multinet^Nakit^Online Kredi Kart\u0131^PassCard Restoran Yemek Kart\u0131^SetCard^Sodexo Restoran Yemek \u00c7eki^Ticket Restaurant Yemek \u00c7eki^Ticket Restaurant Yemek Kart\u0131"], "speed_rating": ["6"], "local_id": ["2146116"], "is_open": ["True"], "restaurant_category_id": ["a4d6a52f-c949-4a22-970b-cc12aeef838d"], "restaurant_name": ["Me\u015fhur Hat D\u00f6ner, \u00dcmraniye (Yamanevler Mah.)"], "minprice": ["<span style='font-weight:bold; letter-spacing:1px;'>-1</span> "]},
{"working_hours": ["11:30-22:00"], "service_rating": ["-1"], "restaurant_link": ["http://istanbul.yemeksepeti.com/TR/Restoran/Merin-Restaurant_-Samandira/eafa4135-8087-426e-83ec-ae9e3a6f9d1b/TR_ISTANBUL/m.ys"], "flavour_rating": ["-1"], "paymentmethods": ["fastPay^Kredi Kart\u0131^Nakit^Online Kredi Kart\u0131"], "speed_rating": ["-1"], "local_id": ["2146398"], "is_open": ["True"], "restaurant_category_id": ["eafa4135-8087-426e-83ec-ae9e3a6f9d1b"], "restaurant_name": ["Merin Restaurant, Samand\u0131ra"], "minprice": ["<span style='font-weight:bold; letter-spacing:1px;'>-1</span> "]},
{"working_hours": ["10:30-23:30"], "service_rating": ["-1"], "restaurant_link": ["http://istanbul.yemeksepeti.com/TR/Restoran/Yoresel-Lezzetler-Carsisi_-Sancaktepe-(Merkez)/e8b81d93-12dd-407a-8498-bf28061eb52d/Market/m.ys"], "flavour_rating": ["-1"], "paymentmethods": ["fastPay^Kredi Kart\u0131^Nakit^Online Kredi Kart\u0131"], "speed_rating": ["-1"], "local_id": ["127463"], "is_open": ["True"], "restaurant_category_id": ["e8b81d93-12dd-407a-8498-bf28061eb52d"], "restaurant_name": ["Y\u00f6resel Lezzetler \u00c7ar\u015f\u0131s\u0131, Sancaktepe (Merkez)"], "minprice": ["<span style='font-weight:bold; letter-spacing:1px;'>-1</span> "]},
{"working_hours": ["09:00-22:00"], "service_rating": ["-1"], "restaurant_link": ["http://istanbul.yemeksepeti.com/TR/Restoran/Josefine-Cafe-ve-Restaurant_-Fenerbahce/4a8ac4d5-aa8d-4bb8-b170-d283eccdb4d0/TR_ISTANBUL/m.ys"], "flavour_rating": ["-1"], "paymentmethods": ["fastPay^Kredi Kart\u0131^Nakit^Online Kredi Kart\u0131^PassCard Restoran Yemek Kart\u0131^SetCard^Sodexo Restoran Yemek \u00c7eki^Ticket Restaurant Yemek \u00c7eki^Ticket Restaurant Yemek Kart\u0131"], "speed_rating": ["-1"], "local_id": ["2146842"], "is_open": ["True"], "restaurant_category_id": ["4a8ac4d5-aa8d-4bb8-b170-d283eccdb4d0"], "restaurant_name": ["Josefine Cafe & Restaurant, Fenerbah\u00e7e"], "minprice": ["<span style='font-weight:bold; letter-spacing:1px;'>-1</span> "]},
{"working_hours": ["24 Saat A\u00e7\u0131k"], "service_rating": ["5"], "restaurant_link": ["http://istanbul.yemeksepeti.com/TR/Restoran/Doy-Doy-Time_-Kucukbakkalkoy/bb78e424-ea2e-477b-8543-c54462f4d63f/TR_ISTANBUL/m.ys"], "flavour_rating": ["5"], "paymentmethods": ["fastPay^Kredi Kart\u0131^Nakit^Online Kredi Kart\u0131^Sodexo Restoran Yemek \u00c7eki"], "speed_rating": ["7"], "local_id": ["2146319"], "is_open": ["True"], "restaurant_category_id": ["bb78e424-ea2e-477b-8543-c54462f4d63f"], "restaurant_name": ["Doy Doy Time, K\u00fc\u00e7\u00fckbakkalk\u00f6y"], "minprice": ["<span style='font-weight:bold; letter-spacing:1px;'>-1</span> "]},
{"working_hours": ["12:00-23:59"], "service_rating": ["7"], "restaurant_link": ["http://istanbul.yemeksepeti.com/TR/Restoran/Big-Mammas_-Beylikduzu-(Adnan-Kahveci-Mahn)-/c5ed57ef-ab9b-43d5-b5d7-101f99cee136/TR_ISTANBUL/m.ys"], "flavour_rating": ["7"], "paymentmethods": ["Multinet^Nakit^Sodexo Restoran Yemek \u00c7eki^Ticket Restaurant Yemek \u00c7eki"], "speed_rating": ["7"], "local_id": ["2146970"], "is_open": ["True"], "restaurant_category_id": ["c5ed57ef-ab9b-43d5-b5d7-101f99cee136"], "restaurant_name": ["Big Mamma's, Beylikd\u00fcz\u00fc (Adnan Kahveci Mah.) "], "minprice": ["<span style='font-weight:bold; letter-spacing:1px;'>-1</span> "]},
{"working_hours": ["12:00-23:00"], "service_rating": ["10"], "restaurant_link": ["http://istanbul.yemeksepeti.com/TR/Restoran/Lera-Fresca_-Bahcelievler-(Yayla)/9b641060-5ab4-4a58-81a1-02da2d98fe9a/TR_ISTANBUL/m.ys"], "flavour_rating": ["9"], "paymentmethods": ["Kredi Kart\u0131^Nakit"], "speed_rating": ["9"], "local_id": ["2146788"], "is_open": ["True"], "restaurant_category_id": ["9b641060-5ab4-4a58-81a1-02da2d98fe9a"], "restaurant_name": ["L'era Fresca, Bah\u00e7elievler (Yayla)"], "minprice": ["<span style='font-weight:bold; letter-spacing:1px;'>-1</span> "]},
{"working_hours": ["11:30-23:00"], "service_rating": ["-1"], "restaurant_link": ["http://istanbul.yemeksepeti.com/TR/Restoran/Komagene-Etsiz-Cig-Kofte_-Bahcelievler-(Soganli)/9797bfec-11dd-422b-ab12-1655e0ae7093/TR_ISTANBUL/m.ys"], "flavour_rating": ["-1"], "paymentmethods": ["fastPay^Kredi Kart\u0131^Nakit^Online Kredi Kart\u0131"], "speed_rating": ["-1"], "local_id": ["2145485"], "is_open": ["True"], "restaurant_category_id": ["9797bfec-11dd-422b-ab12-1655e0ae7093"], "restaurant_name": ["Komagene Etsiz \u00c7i\u011f K\u00f6fte, Bah\u00e7elievler (So\u011fanl\u0131)"], "minprice": ["<span style='font-weight:bold; letter-spacing:1px;'>-1</span> "]},
{"working_hours": ["12:00-22:00"], "service_rating": ["7"], "restaurant_link": ["http://istanbul.yemeksepeti.com/TR/Restoran/Ekler-Keyfi_-Mecidiyekoy/86ff1557-529f-4d0e-8243-e8c14b80ca29/TR_ISTANBUL/m.ys"], "flavour_rating": ["8"], "paymentmethods": ["fastPay^Kredi Kart\u0131^Multinet^Nakit^Online Kredi Kart\u0131"], "speed_rating": ["7"], "local_id": ["2140754"], "is_open": ["True"], "restaurant_category_id": ["86ff1557-529f-4d0e-8243-e8c14b80ca29"], "restaurant_name": ["Ekler Keyfi, Mecidiyek\u00f6y"], "minprice": ["<span style='font-weight:bold; letter-spacing:1px;'>-1</span> "]},
{"working_hours": ["11:30-22:00"], "service_rating": ["-1"], "restaurant_link": ["http://istanbul.yemeksepeti.com/TR/Restoran/Pizza-Kitchen_-Gayrettepe/53625857-5b4c-4edf-b2b7-201173e495cc/TR_ISTANBUL/m.ys"], "flavour_rating": ["-1"], "paymentmethods": ["fastPay^Kredi Kart\u0131^Multinet^Nakit^Online Kredi Kart\u0131^PassCard Restoran Yemek Kart\u0131^SetCard^Sodexo Restoran Yemek \u00c7eki^Ticket Restaurant Yemek \u00c7eki^Ticket Restaurant Yemek Kart\u0131"], "speed_rating": ["-1"], "local_id": ["2146399"], "is_open": ["True"], "restaurant_category_id": ["53625857-5b4c-4edf-b2b7-201173e495cc"], "restaurant_name": ["Pizza Kitchen, Gayrettepe"], "minprice": ["<span style='font-weight:bold; letter-spacing:1px;'>-1</span> "]},
{"working_hours": ["09:00-23:59"], "service_rating": ["8"], "restaurant_link": ["http://istanbul.yemeksepeti.com/TR/Restoran/Adil-Doner_-Uskudar-(Merkez)/d0d0be5f-2103-4426-a568-6280a926b9e5/TR_ISTANBUL/m.ys"], "flavour_rating": ["7"], "paymentmethods": ["fastPay^Kredi Kart\u0131^Multinet^Nakit^Online Kredi Kart\u0131^PassCard Restoran Yemek Kart\u0131^Sodexo Restoran Yemek \u00c7eki^Ticket Restaurant Yemek \u00c7eki^Ticket Restaurant Yemek Kart\u0131"], "speed_rating": ["8"], "local_id": ["2144975"], "is_open": ["True"], "restaurant_category_id": ["d0d0be5f-2103-4426-a568-6280a926b9e5"], "restaurant_name": ["Adil D\u00f6ner, \u00dcsk\u00fcdar (Merkez)"], "minprice": ["<span style='font-weight:bold; letter-spacing:1px;'>-1</span> "]}]